<?xml version="1.0" encoding="utf-8"?>
<!-- Generator: Adobe Illustrator 19.0.0, SVG Export Plug-In . SVG Version: 6.00 Build 0)  -->
<svg version="1.1" id="Layer_1" xmlns="http://www.w3.org/2000/svg" xmlns:xlink="http://www.w3.org/1999/xlink" x="0px" y="0px"
	 viewBox="-455 146.5 500 500" enable-background="new -455 146.5 500 500" xml:space="preserve">
<g display="none">
	<rect x="-210" y="359" display="inline" width="10" height="10"/>
	<rect x="-180" y="409" display="inline" width="10" height="10"/>
	<rect x="-170" y="409" display="inline" width="10" height="10"/>
	<rect x="-250" y="399" display="inline" width="10" height="10"/>
	<rect x="-240" y="389" display="inline" width="10" height="10"/>
	<rect x="-230" y="379" display="inline" width="10" height="10"/>
	<rect x="-220" y="369" display="inline" width="10" height="10"/>
	<rect x="-200" y="369" display="inline" width="10" height="10"/>
	<rect x="-190" y="379" display="inline" width="10" height="10"/>
	<rect x="-180" y="389" display="inline" width="10" height="10"/>
	<rect x="-170" y="399" display="inline" width="10" height="10"/>
	<rect x="-190" y="409" display="inline" width="10" height="10"/>
	<rect x="-200" y="409" display="inline" width="10" height="10"/>
	<rect x="-210" y="409" display="inline" width="10" height="10"/>
	<rect x="-220" y="409" display="inline" width="10" height="10"/>
	<rect x="-230" y="409" display="inline" width="10" height="10"/>
	<rect x="-240" y="409" display="inline" width="10" height="10"/>
	<rect x="-250" y="409" display="inline" width="10" height="10"/>
</g>
<g>
	<path d="M-84.7,530.9L41.7,404.5c0.5-0.5,1-1.1,1.4-1.7c0.2-0.3,0.3-0.6,0.5-0.8c0.2-0.4,0.4-0.7,0.6-1.1c0.2-0.4,0.2-0.7,0.4-1.1
		c0.1-0.3,0.2-0.6,0.3-1c0.3-1.5,0.3-2.9,0-4.4c-0.1-0.3-0.2-0.6-0.3-1c-0.1-0.4-0.2-0.8-0.4-1.1c-0.2-0.4-0.4-0.7-0.6-1.1
		c-0.2-0.3-0.3-0.6-0.5-0.8c-0.4-0.6-0.9-1.2-1.4-1.7L-84.7,262.1c-4.4-4.4-11.5-4.4-15.9,0c-2.2,2.2-3.3,5.1-3.3,7.9
		s1.1,5.7,3.3,7.9L6.6,385.3h-450.4c-6.2,0-11.2,5-11.2,11.2c0,6.2,5,11.2,11.2,11.2H6.6L-100.6,515c-2.2,2.2-3.3,5.1-3.3,7.9
		s1.1,5.7,3.3,7.9C-96.2,535.2-89.1,535.2-84.7,530.9z"/>
</g>
</svg>
