<?xml version="1.0" encoding="utf-8"?>
<!-- Generator: Adobe Illustrator 16.0.0, SVG Export Plug-In . SVG Version: 6.00 Build 0)  -->
<!DOCTYPE svg PUBLIC "-//W3C//DTD SVG 1.1//EN" "http://www.w3.org/Graphics/SVG/1.1/DTD/svg11.dtd">
<svg version="1.1" id="Layer_1" xmlns="http://www.w3.org/2000/svg" xmlns:xlink="http://www.w3.org/1999/xlink" x="0px" y="0px"
	 width="500px" height="500px" viewBox="0 0 500 500" enable-background="new 0 0 500 500" xml:space="preserve">
<g>
	<defs>
		<rect id="SVGID_1_" x="2.344" y="36.369" width="497.656" height="425.259"/>
	</defs>
	<clipPath id="SVGID_2_">
		<use xlink:href="#SVGID_1_"  overflow="visible"/>
	</clipPath>
	<path clip-path="url(#SVGID_2_)" d="M487.89,155.215c-27.264-67.163-90.791-93.829-97.053-96.323
		c-32.99-14.949-65.257-22.523-95.887-22.523c-28.479,0-125.894,9.208-183.189,127.755c-8.42,17.425-9.633,34.843-3.319,47.782
		c4.432,9.078,12.162,15.222,21.761,17.287c7.194,1.557,15.888,3.768,25.844,6.596c38.784,11,44.138,45.341,44.152,80.801
		c0.012,44.091,11.988,72.348,36.605,86.399c11.358,6.478,24.182,9.763,38.143,9.763c19.055,0,39.452-6.174,60.618-18.355
		c32.673-18.805,74.402-30.445,94.322-30.445c24.839,0,38.718-22.324,43.281-36.191C503.049,262.815,508,204.769,487.89,155.215
		 M449.17,317.553c-0.209,0.483-0.438,1.056-0.604,1.564c-0.058,0.191-6.346,18.762-18.653,18.762
		c-23.465,0-69.05,11.882-107.324,33.907c-28.307,16.293-54.094,19.251-72.85,8.554c-15.776-9.005-23.448-29.86-23.459-63.768
		c-0.007-24.056-0.027-87.971-63.104-105.866c-10.498-2.978-19.738-5.33-27.466-7c-1.166-0.249-2.651-0.847-3.827-3.247
		c-2.118-4.34-2.344-13.189,3.364-25.004C185.941,70.569,270.322,62.424,294.976,62.424c26.984,0,55.724,6.841,85.406,20.336
		c0.234,0.111,0.478,0.21,0.719,0.302c0.585,0.226,58.772,23.127,82.65,81.953C481.112,207.798,476.212,259.124,449.17,317.553"/>
	<path clip-path="url(#SVGID_2_)" d="M308.411,252.082c-20.614,0-37.378,16.767-37.378,37.372c0,20.614,16.764,37.383,37.378,37.383
		c20.606,0,37.381-16.769,37.381-37.383C345.799,268.849,329.018,252.082,308.411,252.082 M308.411,300.771
		c-6.238,0-11.31-5.079-11.31-11.316c0-6.236,5.071-11.302,11.31-11.302c6.236,0,11.314,5.065,11.314,11.302
		C319.726,295.691,314.647,300.771,308.411,300.771"/>
	<path clip-path="url(#SVGID_2_)" d="M176.185,335.148c7.174-0.496,12.591-6.733,12.088-13.911
		c-0.501-7.179-6.699-12.575-13.913-12.093l-11.137,0.777c0.28-14.663-0.403-30.255-2.164-46.858
		c-0.764-7.156-7.201-12.359-14.337-11.583c-7.159,0.757-12.35,7.168-11.586,14.332c1.747,16.438,2.43,31.756,2.053,45.936
		l-87.684,6.128l-3.224-23.019c-0.999-7.127-7.573-12.116-14.717-11.099c-7.128,1.006-12.095,7.586-11.099,14.714l2.979,21.225
		l-8.98,0.636c-7.175,0.51-12.588,6.727-12.088,13.918c0.483,6.867,6.205,12.124,12.989,12.124c0.305,0,0.611-0.02,0.926-0.045
		l10.778-0.744l2.686,19.123l-9.553,0.682c-7.182,0.503-12.591,6.74-12.082,13.925c0.487,6.86,6.202,12.099,12.986,12.099
		c0.305,0,0.621-0.013,0.938-0.026l11.341-0.802l6.306,45.032c-6.335,0.503-11.598,5.575-11.996,12.149
		c-0.436,7.184,5.037,13.357,12.226,13.789c0.248,0.021,1.206,0.071,2.768,0.071c10.728,0,49.77-2.387,80.919-34.989
		c11.64-12.181,20.677-27.028,27.215-44.39l24.718-1.763c7.182-0.509,12.589-6.746,12.083-13.925
		c-0.509-7.185-6.727-12.575-13.928-12.085l-15.26,1.082c1.275-6.224,2.326-12.664,3.102-19.392L176.185,335.148z M105.063,408.297
		c-12.896,13.645-27.534,20.441-39.534,23.853l-6.09-43.421l62.142-4.417C117.046,393.418,111.557,401.437,105.063,408.297
		 M131.318,357.486l-75.51,5.358l-2.679-19.104l81.921-5.722C134.114,344.848,132.873,351.339,131.318,357.486"/>
</g>
</svg>
