<?xml version="1.0" encoding="utf-8"?>
<!-- Generator: Adobe Illustrator 16.0.0, SVG Export Plug-In . SVG Version: 6.00 Build 0)  -->
<!DOCTYPE svg PUBLIC "-//W3C//DTD SVG 1.1//EN" "http://www.w3.org/Graphics/SVG/1.1/DTD/svg11.dtd">
<svg version="1.1" id="Layer_1" xmlns="http://www.w3.org/2000/svg" xmlns:xlink="http://www.w3.org/1999/xlink" x="0px" y="0px"
	 width="500px" height="500px" viewBox="0 0 500 500" enable-background="new 0 0 500 500" xml:space="preserve">
<g>
	<defs>
		<rect id="SVGID_1_" y="31.87" width="495.141" height="440.584"/>
	</defs>
	<clipPath id="SVGID_2_">
		<use xlink:href="#SVGID_1_"  overflow="visible"/>
	</clipPath>
	<path clip-path="url(#SVGID_2_)" d="M487.594,326.285c-1.462-1.365-26.576-24.65-66.384-37.98
		c55.417-64.388,56.162-143.444,56.162-146.986l-0.019-10.351l-10.334-0.613c0,0-1.967-0.115-5.572-0.115
		c-19.483,0-82.5,3.433-138.858,43.664C311.566,93.3,257.617,41.367,255.117,39.002l-7.543-7.133l-7.542,7.127
		c-2.501,2.364-56.446,54.297-67.475,134.901c-56.358-40.231-119.374-43.664-138.858-43.664c-3.599,0-5.567,0.116-5.567,0.116
		l-10.356,0.623l0.005,10.346c0.006,3.542,0.75,82.592,56.151,146.976C34.122,301.617,9.022,324.92,7.567,326.285L0,333.387
		l6.67,7.948c1.896,2.269,47.367,55.502,120.703,61.729c4.115,0.35,8.284,0.53,12.404,0.53c17.231,0,33.073-3.019,47.149-7.514
		c-0.536,2.448-0.883,4.953-1.021,7.542c-2.149,40.953,54.898,65.926,57.329,66.976l4.338,1.855l4.335-1.855
		c2.431-1.05,59.478-26.022,57.329-66.976c-0.131-2.584-0.497-5.094-1.017-7.542c14.075,4.49,29.914,7.514,47.146,7.514
		c4.131,0,8.305-0.181,12.395-0.53c73.338-6.222,118.815-59.461,120.711-61.729l6.667-7.948L487.594,326.285z M287.322,404.774
		c1.004,19.201-25.266,36.389-39.749,43.62c-14.481-7.231-40.751-24.419-39.748-43.62c0.421-8.039,4.819-15.654,10.786-22.401
		c8.076-9.126,19.016-16.595,27.13-21.176c0.572,0.491,1.185,0.999,1.825,1.528c0.65-0.529,1.261-1.037,1.825-1.528
		c8.118,4.581,19.061,12.05,27.128,21.176C282.504,389.12,286.899,396.735,287.322,404.774 M170.64,200.205
		c1.825,1.517,3.672,2.983,5.473,4.603c2,1.791,3.82,3.655,5.687,5.505c4.417,4.366,8.521,8.854,12.253,13.471
		c25.288,31.307,35.563,67.127,39.712,92.173c0.188,1.15,0.398,2.347,0.564,3.458c0.97,6.425,1.514,11.947,1.825,16.421
		c-0.601-0.564-1.214-1.146-1.854-1.744c0.651,0.745,1.278,1.445,1.891,2.133c0.022,0.339,0.055,0.733,0.079,1.055
		c-3.904-0.011-8.77-0.175-14.228-0.575c-0.536-0.039-1.058-0.084-1.598-0.124c-25.537-2.025-64.879-9.641-100.156-35.144
		c-4.172-3.012-8.272-6.306-12.307-9.838c-2.481-2.199-4.961-4.416-7.376-6.819c-0.906-0.891-1.709-1.828-2.581-2.736
		c-44.67-46.281-55.154-105.533-57.568-129.725C65.093,153.255,122.35,160.133,170.64,200.205 M324.508,200.205
		c48.297-40.082,105.587-46.95,130.204-47.887c-2.357,24.164-12.754,83.301-57.595,129.731c-0.868,0.908-1.669,1.84-2.572,2.73
		c-2.414,2.403-4.9,4.62-7.377,6.819c-4.018,3.532-8.118,6.826-12.292,9.833c-35.335,25.548-74.738,33.151-100.268,35.165
		c-0.509,0.046-0.999,0.073-1.496,0.113c-5.477,0.395-10.346,0.563-14.255,0.575c0.018-0.311,0.058-0.699,0.074-1.026
		c0.619-0.699,1.258-1.404,1.917-2.161c-0.654,0.604-1.291,1.196-1.89,1.777c0.311-4.457,0.841-9.984,1.8-16.41
		c0.164-1.122,0.384-2.346,0.58-3.524c4.124-25.019,14.374-60.793,39.753-92.151c3.733-4.617,7.853-9.099,12.263-13.464
		c1.867-1.85,3.695-3.721,5.687-5.506C320.852,203.183,322.691,201.722,324.508,200.205 M247.574,278.489
		c-8.964-28.354-25.241-60.745-54.574-87.925c4.053-62.514,38.908-109.43,54.574-127.492
		c15.685,18.074,50.528,64.983,54.573,127.492C272.825,217.745,256.544,250.13,247.574,278.489 M91.271,306.152
		c40.327,36.604,88.679,48.276,121.114,51.733c-2.409,2.06-4.789,4.281-7.088,6.656c-17.097,9.015-39.602,17.104-65.519,17.104
		c-3.514,0-7.054-0.151-10.542-0.45c-47.87-4.057-83.058-31.963-97.934-45.963C42.439,326.934,63.689,313.441,91.271,306.152
		 M282.765,357.886c32.44-3.457,80.762-15.129,121.101-51.716c27.527,7.321,48.826,20.826,59.979,29.09
		c-14.808,14.029-49.854,41.851-97.928,45.936c-3.492,0.299-7.034,0.45-10.542,0.45c-25.909,0-48.513-8.185-65.667-17.261
		C287.452,362.077,285.121,359.9,282.765,357.886"/>
</g>
</svg>
