<?xml version="1.0" encoding="utf-8"?>
<!-- Generator: Adobe Illustrator 16.0.0, SVG Export Plug-In . SVG Version: 6.00 Build 0)  -->
<!DOCTYPE svg PUBLIC "-//W3C//DTD SVG 1.1//EN" "http://www.w3.org/Graphics/SVG/1.1/DTD/svg11.dtd">
<svg version="1.1" id="Layer_1" xmlns="http://www.w3.org/2000/svg" xmlns:xlink="http://www.w3.org/1999/xlink" x="0px" y="0px"
	 width="500px" height="500px" viewBox="0 0 500 500" enable-background="new 0 0 500 500" xml:space="preserve">
<g>
	<defs>
		<rect id="SVGID_1_" x="63.335" width="373.329" height="500"/>
	</defs>
	<clipPath id="SVGID_2_">
		<use xlink:href="#SVGID_1_"  overflow="visible"/>
	</clipPath>
	<path clip-path="url(#SVGID_2_)" d="M85.558,500H63.335V0h188.889c28.894,0,63.058,14.622,66.401,82.227h31.386
		c47.78,0,86.653,41.866,86.653,93.327v190.723l-16.825-10.089c-22.842-13.696-60.544-20.641-112.059-20.641h-11.111v-26.649H85.558
		V500z M318.892,313.43c40.253,0.774,71.787,5.853,95.55,15.417V175.553c0-39.207-28.903-71.104-64.431-71.104h-31.119V313.43z
		 M85.558,286.675h211.112V93.338c0-63.744-25.365-71.115-44.445-71.115H85.558V286.675z"/>
</g>
</svg>
