<?xml version="1.0" encoding="utf-8"?>
<!-- Generator: Adobe Illustrator 19.0.0, SVG Export Plug-In . SVG Version: 6.00 Build 0)  -->
<svg version="1.1" id="Layer_1" xmlns="http://www.w3.org/2000/svg" xmlns:xlink="http://www.w3.org/1999/xlink" x="0px" y="0px"
	 viewBox="-399 0.5 500 500" enable-background="new -399 0.5 500 500" xml:space="preserve">
<g>
	<g display="none">
		<path display="inline" d="M60,99.9h-417.4c-10.3,0-18.8-8.5-18.8-18.8l0,0c0-10.3,8.5-18.8,18.8-18.8H60
			c10.3,0,18.8,8.5,18.8,18.8l0,0C78.8,91.4,70.3,99.9,60,99.9z"/>
		<path display="inline" d="M60,270.4h-75.8c-10.3,0-18.8-8.5-18.8-18.8l0,0c0-10.3,8.5-18.8,18.8-18.8H60
			c10.3,0,18.8,8.5,18.8,18.8l0,0C78.8,261.9,70.3,270.4,60,270.4z"/>
		<path display="inline" d="M-357.4,440.8H60c10.3,0,18.8-8.5,18.8-18.8l0,0c0-10.3-8.5-18.8-18.8-18.8h-417.4
			c-10.3,0-18.8,8.5-18.8,18.8l0,0C-376.2,432.9-367.7,440.8-357.4,440.8z"/>
		<path display="inline" d="M-357.4,270.4h246.3c10.3,0,18.8-8.5,18.8-18.8l0,0c0-10.3-8.5-18.8-18.8-18.8h-246.3
			c-10.3,0-18.8,8.5-18.8,18.8l0,0C-376.2,261.9-367.7,270.4-357.4,270.4z"/>
	</g>
	<g display="none">
		<path display="inline" d="M-151.7,468.7c-4.2,0-8.5-1.8-11.5-4.9c-8.5-8.5-205.7-206.3-205.7-316.1c0-72.2,46.7-120.7,115.9-120.7
			c37.6,0,69.2,14,91,37c7.3,7.9,19.4,7.9,26.1,0c21.8-23.1,53.4-37,91-37c71,0,120.7,51.6,120.7,125.6c0,45.5-37,111.6-109.8,197.8
			c-52.2,61.9-105.6,112.8-106.2,113.4C-143.2,466.9-147.5,468.7-151.7,468.7z M-253,59.9c-51,0-83.1,33.4-83.1,88
			c0,69.8,108.6,200.2,172.3,268.1c6.7,7.3,18.8,7.3,25.5,0.6C-71.7,349.2,43,219.4,43,153.3c0-56.4-34.6-92.2-88-92.2
			c-51.6,0-87.4,33.4-88,81.9c0,9.1-6.7,17-15.8,17.6c-9.7,0.6-17.6-7.3-17.6-16.4C-165.1,93.8-201.5,59.9-253,59.9z"/>
	</g>
	<g display="none">
		<g display="inline">
			<path d="M-191.2,496.6c-3,0-6.1-0.6-8.5-2.4c-6.7-3.6-10.9-11.5-10.3-18.8l9.7-121.3c0.6-10.3,9.7-18.2,20.6-17.6
				c10.3,0.6,18.2,9.7,17.6,20.6l-2.4,28.5c-0.6,4.9,6.1,7.3,8.5,3l96.5-149.2c1.8-3,0-7.3-4.2-7.3h-65.5c-3,0-6.7-0.6-9.1-2.4
				c-7.3-3.6-10.9-11.5-9.7-19.4l10.9-88c0.6-4.9-6.1-7.3-8.5-3l-90.4,134.1c-1.8,3,0,7.3,3.6,7.3h54c9.7,0,18.8,7.3,19.4,17
				c1.2,11.5-7.9,20.6-18.8,20.6h-98.3c-4.9,0-9.7-1.8-13.3-4.9c-7.3-6.7-7.9-17-3-24.3l170.5-253c4.2-6.1,11.5-9.7,18.8-8.5
				c10.3,1.8,17.6,10.9,16.4,21.2l-21.2,165.6h86.8c4.9,0,9.7,1.8,13.3,4.9c7.3,6.7,7.9,17,3,24.3l-170.5,264.5
				C-179,493.6-185.1,496.6-191.2,496.6z"/>
		</g>
	</g>
	<g display="none">
		<path display="inline" d="M92.7,466.9L-43.1,323.1c-7.9,9.7-17,18.8-26.7,27.3l135.9,142c7.9,7.9,20.6,7.3,27.3-1.2
			C99.4,483.9,98.8,473.6,92.7,466.9z"/>
		<path display="inline" d="M-72.3,306.8C-103.8,345-152.9,368-206.3,365c-82.5-5.5-148.6-74-151.1-156.5
			c-2.4-94,75.8-170.5,170.5-165C-109.3,47.7-45,109-36.5,186c2.4,23.7,0,46.7-6.7,67.3c-2.4,6.7-0.6,14,4.2,18.8l0,0
			c9.7,10.3,27.3,6.7,31.5-6.7c7.9-23.7,10.9-49.1,9.1-75.8C-4.9,90.2-86.2,10.1-186.3,5.3C-299.1-0.2-392.6,88.4-395,199.4
			c-2.4,108,83.7,199.6,191.7,203.8c66.7,2.4,126.8-27.9,164.4-76.4l-19.4-20.6C-61.9,302.5-68.6,302.5-72.3,306.8z"/>
	</g>
	<g display="none">
		<g display="inline">
			<g>
				<path d="M-108.7,440.8c-4.2,0-7.9,2.4-10.9,5.5c-6.7,8.5-17.6,14-29.1,14s-22.4-5.5-29.1-14c-2.4-3-6.7-5.5-10.9-5.5
					c-4.2,0-8.5,0-12.7,0c-10.9,0-17.6,11.5-12.1,20.6c13.3,21.8,37,36.4,64.9,36.4s51.6-14.6,64.9-36.4c5.5-9.1-1.2-21.2-12.1-20.6
					C-100.2,440.8-104.4,440.8-108.7,440.8z"/>
			</g>
			<path d="M2.4,315.3L2.4,315.3l-1.2-0.6c-4.2-3-31.5-26.1-31.5-125c0-34-5.5-61.3-17-81.3c-6.1-10.9-21.8-13.3-30.3-3.6
				c0,0,0,0,0,0.6c-5.5,6.1-6.1,15.2-2.4,22.4c7.9,13.3,11.5,33.4,11.5,62.5c0,125.6,41.9,153.5,53.4,158.9
				c13.3,7.3,13.3,13.3,13.3,16.4c0,2.4-2.4,7.9-4.2,9.7c0,0-22.4,9.1-142.6,9.1c-122.5,0-142.6-9.1-142.6-9.1
				c-1.8-1.8-4.2-7.3-4.2-9.7c0-3,0-9.1,13.3-16.4c9.7-4.9,47.9-32.8,47.9-158.9c0-57.6,14-90.4,85.5-90.4
				c21.8,0,41.3-12.7,50.4-30.9c-14.6-4.2-31.5-6.7-50.4-6.7c-84.3,0-123.1,40.6-123.1,128c0,101.9-26.1,123.8-27.9,125.6
				c-22.4,12.1-33.4,29.1-33.4,49.7c0,15.2,9.1,37.6,27.3,44.9c10.3,7.3,39.4,12.1,157.7,12.1s148-4.9,157.7-12.1
				c17.6-7.3,27.3-29.7,27.3-44.9C36.3,344.4,24.8,327.4,2.4,315.3z"/>
			<path d="M-148.7,24.1c10.3,0,18.8,8.5,18.8,18.8s-8.5,18.8-18.8,18.8s-18.8-8.5-18.8-18.8S-159,24.1-148.7,24.1 M-148.7-14.1
				c-31.5,0-57,25.5-57,57s25.5,57,57,57s57-25.5,57-57S-117.2-14.1-148.7-14.1L-148.7-14.1z"/>
		</g>
	</g>
	<g display="none">
		<g display="inline">
			<path d="M-15.8,469.3c-4.2,0-9.1-1.8-12.7-4.9l-84.3-75.2c-3.6-3-7.9-4.9-12.7-4.9h-194.1c-31.5,0-57-25.5-57-57V99.9
				c0-31.5,25.5-57,57-57H21.2c31.5,0,57,25.5,57,57v227.5c0,31.5-25.5,57-57,57h-37.6c-10.3,0-18.8-8.5-18.8-18.8
				s8.5-18.8,18.8-18.8h37.6c10.3,0,18.8-8.5,18.8-18.8V99.9c0-10.3-8.5-18.8-18.8-18.8h-340.3c-10.3,0-18.8,8.5-18.8,18.8v227.5
				c0,10.3,8.5,18.8,18.8,18.8H-125c14,0,27.3,5.5,38.2,14.6l83.7,75.8c7.9,7.3,8.5,18.8,1.2,26.7C-5.5,467.5-11,469.3-15.8,469.3z"
				/>
		</g>
	</g>
	<path display="none" d="M12.7,166L12.7,166C12.1,75.6-60.1,5.3-148.7,5.3S-309.5,75.6-310.1,166l0,0l0,0l0,0l0,0
		c0.6,122.5,143.2,246.3,149.2,251.8c3.6,3,7.9,4.9,12.1,4.9s8.5-1.8,12.1-4.9C-130.5,412.3,12.1,289.2,12.7,166L12.7,166
		C12.7,166.6,12.7,166.6,12.7,166C12.7,166.6,12.7,166,12.7,166z M-135.4,364.4c-7.3,7.3-19.4,7.3-26.7,0
		c-39.4-40-109.8-121.9-109.8-197.8c0-66.7,55.2-123.1,123.1-123.1S-25.5,99.9-25.5,166.6C-25.5,242.5-95.9,324.4-135.4,364.4z
		 M12.7,422c0,49.7-81.3,75.8-161.4,75.8s-161.4-26.1-161.4-75.8c0-23.1,17.6-40.6,44.3-53.4c7.3-3.6,16.4-1.2,21.8,4.9
		c0,0,0,0,0,0.6c7.9,9.7,4.9,23.7-6.7,29.1c-14.6,7.3-21.8,14.6-21.8,19.4c0,11.5,41.9,37.6,123.1,37.6s123.1-26.7,123.1-37.6
		c0-4.9-7.3-12.1-21.8-19.4c-10.9-5.5-14.6-19.4-6.7-29.1c0,0,0,0,0-0.6c5.5-6.1,14.6-8.5,21.8-4.9C-4.9,381.4,12.7,399,12.7,422z
		 M-148.7,99.9c-36.4,0-66.1,29.7-66.1,66.1s29.7,66.7,66.1,66.7s66.1-29.7,66.1-66.1S-112.3,99.9-148.7,99.9z M-148.7,194.5
		c-15.8,0-28.5-12.7-28.5-28.5s12.7-28.5,28.5-28.5s28.5,12.7,28.5,28.5S-132.9,194.5-148.7,194.5z"/>
	<g display="none">
		<path display="inline" d="M-148.7,351.1c-54.6,0-99.5-44.9-99.5-99.5s44.9-99.5,99.5-99.5s99.5,44.9,99.5,99.5
			c0,7.9-1.2,15.8-3,23.7c-2.4,10.3-12.7,16.4-23.1,14s-16.4-12.7-14-23.1c1.2-4.9,1.8-9.7,1.8-14.6c0-34-27.9-61.9-61.9-61.9
			s-61.3,27.9-61.3,61.9s27.9,61.9,61.9,61.9c7.3,0,14.6-1.2,21.8-3.6c9.7-3.6,20.6,1.2,24.3,10.9c3.6,9.7-1.2,20.6-10.9,24.3
			C-125,349.2-136.6,351.1-148.7,351.1z M-75.9,440.8v-18.2l11.5,12.7c10.9,10.9,24.9,16.4,40,16.4s29.1-6.1,40-16.4l20-20
			c10.9-10.9,16.4-24.9,16.4-40s-6.1-28.5-17-39.4l-12.7-12.1h18.2c31.5,0,59.5-27.3,59.5-58.8v-28.5c0-31.5-27.9-58.8-59.5-58.8
			H22.4L35.1,166c22.4-22.4,22.4-57.6,0-80.1l-20-20C4.2,55-9.8,49.5-24.9,49.5s-28.5,6.1-39.4,17l-11.5,13.3V62.3
			c0-31.5-27.3-59.5-58.8-59.5h-28.5c-31.5,0-58.8,27.9-58.8,59.5v18.2l-11.5-12.7c-10.9-10.9-24.9-16.4-40-16.4
			c-15.2,0-29.1,6.1-40,16.4l-20,20c-22.4,22.4-21.8,57.6,0,79.5l12.7,11.5h-18.2c-30.3,0-58.2,27.3-58.2,58.8v28.5
			c0,31.5,27.9,58.8,59.5,58.8h18.2l-12.7,11.5c-22.4,22.4-22.4,57.6,0,80.1l20,20c10.9,10.9,24.9,16.4,40,16.4
			c15.2,0,28.5-6.1,39.4-17l11.5-12.7v18.2c0,31.5,27.3,59.5,58.8,59.5h28.5C-103.2,500.3-75.9,472.4-75.9,440.8z M-240.3,390.5
			l-18.8,18.8c-3.6,3.6-8.5,5.5-13.3,5.5c-4.9,0-9.7-1.8-13.3-5.5l-20.6-20.6c-7.3-7.3-7.3-19.4,0-26.7l18.8-18.8
			c9.7-9.7,12.7-26.1,7.3-38.8c-5.5-12.7-17.6-22.4-31.5-22.4h-26.7c-10.3,0-16.4-5.5-16.4-16.4V237c0-10.3,6.1-16.4,17-16.4h26.7
			c14,0,26.1-9.7,31.5-23.1V197c5.5-12.7,2.4-27.9-7.3-37.6l-19.4-18.2c-7.3-7.3-7.3-19.4,0-26.7l20-20c3.6-3.6,8.5-5.5,13.3-5.5
			s9.7,1.8,13.3,5.5l17,17c7.3,7.3,16.4,10.9,26.7,10.9c4.9,0,9.7-1.2,14-2.4l0,0h1.2c11.5-4.9,20.6-15.8,20.6-28.5V62.3
			c0-10.3,5.5-17,16.4-17h28.5c10.3,0,16.4,6.1,16.4,17V89c0,14,9.7,26.1,23.1,31.5c4.2,1.8,9.1,2.4,14,2.4c9.1,0,18.2-3.6,24.3-9.7
			l18.8-18.8c3.6-3.6,8.5-5.5,13.3-5.5c4.9,0,9.7,1.8,13.3,5.5l20,20c7.3,7.3,7.3,19.4,0,26.7L-11,160c-9.7,9.7-12.7,26.1-7.3,38.8
			c5.5,12.7,17.6,22.4,31.5,22.4H40c10.3,0,17,5.5,17,16.4v28.5c0,10.3-6.1,16.4-17,16.4H13.3c-14,0-26.1,9.7-31.5,22.4v0.6v0.6
			c-5.5,12.7-2.4,27.3,7.3,37.6l18.8,18.8c7.3,7.3,7.3,19.4,0,26.7l-19.4,20c-3.6,3.6-8.5,5.5-13.3,5.5c-4.9,0-9.7-1.8-13.3-5.5
			l-18.8-18.8c-6.7-6.7-15.2-9.7-24.3-9.7c-4.2,0-8.5,0.6-12.7,2.4h-1.8c-12.7,5.5-22.4,17.6-22.4,31.5v26.7c0,10.3-5.5,17-16.4,17
			h-28.5c-10.3,0-16.4-6.1-16.4-17v-26.7c0-14-9.7-26.1-23.1-31.5c-4.2-1.8-9.1-2.4-14-2.4C-224.5,380.2-234.2,383.8-240.3,390.5z"
			/>
	</g>
	<g display="none">
		<path display="inline" d="M21.8,403.2c-4.9,0-9.7-1.8-13.3-5.5l-70.4-70.4h-162.6c-31.5,0-57-25.5-57-57V99.9
			c0-31.5,25.5-57,57-57H41.2c31.5,0,57,25.5,57,57v170.5c0,31.5-25.5,57-57,57h-4.9c-10.3,0-18.8-8.5-18.8-18.8s8.5-18.8,18.8-18.8
			h4.9c10.3,0,18.8-8.5,18.8-18.8V99.9c0-10.3-8.5-18.8-18.8-18.8h-265.7c-10.3,0-18.8,8.5-18.8,18.8v170.5
			c0,10.3,8.5,18.8,18.8,18.8h170.5c4.9,0,9.7,1.8,13.3,5.5l75.8,75.8c7.3,7.3,7.3,19.4,0,26.7C31.5,401.4,26.6,403.2,21.8,403.2z
			 M-300.4,384.4c0-10.3-8.5-18.8-18.8-18.8H-338c-10.3,0-18.8-8.5-18.8-18.8V180.6c0-10.3,8.5-18.8,18.8-18.8h18.8
			c10.3,0,18.8-8.5,18.8-18.8c0-10.3-8.5-18.8-18.8-18.8H-338c-31.5,0-57,25.5-57,57v165.6c0,31.5,25.5,57,57,57h18.8
			C-308.9,403.2-300.4,394.7-300.4,384.4z M-287,473.6l70.4-70.4h143.8c10.3,0,18.8-8.5,18.8-18.8c0-10.3-8.5-18.8-18.8-18.8h-151.7
			c-4.9,0-9.7,1.8-13.3,5.5l-75.8,75.8c-7.3,7.3-7.3,19.4,0,26.7c3.6,3.6,8.5,5.5,13.3,5.5C-295.5,479.1-290.7,477.2-287,473.6z"/>
	</g>
	<g display="none">
		<path display="inline" d="M-129.9,497.9c-6.1,0-12.1-3-17.6-10.3c-1.2-1.8-1.2-3.6-1.2-5.5V340.7c0-2.4,1.2-4.9,3-6.7
			c16.4-14.6,35.2-3.6,35.2,12.1v23.7c0,4.9,6.7,6.7,9.1,1.8c41.3-91,101.9-223.2,136.5-298.5c1.8-4.2-2.4-7.9-6.1-6.1l-305.7,137.7
			c-4.9,1.8-3,9.1,1.8,9.1h126.2c21.2,0,37.6,17,37.6,38.8v23.7c0,2.4-1.2,4.9-3,6.7c-16.4,14.6-35.2,3.6-35.2-12.1v-9.7
			c0-5.5-4.2-9.7-9.7-9.7h-231.7c-1.8,0-3.6-0.6-4.9-1.2c-14.6-10.9-10.3-29.1,2.4-35.2L70.9,6.5C82.4,1,97,8.3,98.2,24.7
			c0,1.2,0,2.4-0.6,3.6c-70.4,153.5-206.9,450.7-209.9,458C-115.3,493.6-122.6,497.9-129.9,497.9z"/>
	</g>
	<g display="none">
		<path display="inline" d="M58.8,292.8c-35.8,35.8-111,96.5-212.3,96.5c-103.7,0-180.2-63.1-216.6-100.7
			c-7.3-7.3-7.3-19.4,0.6-26.7c7.3-7.3,19.4-7.3,26.7,0.6c32.2,33.4,99.5,89.2,189.3,89.2c88,0,154.1-53.4,185.6-84.9
			c7.3-7.3,19.4-7.3,26.7,0C66.7,273.4,66.7,285.5,58.8,292.8z M49.1,226.1c-7.3,3.6-15.8,2.4-21.8-3.6
			c-19.4-18.8-45.5-39.4-77-55.2c-3-1.8-6.7,1.8-5.5,4.9c4.2,11.5,6.7,23.7,6.7,36.4c0,64.9-59.5,115.9-126.8,101.9
			c-39.4-8.5-71-39.4-79.5-78.9c-4.2-21.2-2.4-41.3,4.2-59.5c1.2-3.6-2.4-6.7-5.5-4.9c-32.2,15.8-58.2,37-77.7,55.8
			c-3.6,3.6-8.5,5.5-13.3,5.5c-7.3,0-14.6-4.2-18.2-12.7c-3-7.3-0.6-15.2,4.9-20c43.1-41.9,114-91.6,207.5-91.6
			c92.8,0,163.8,49.1,206.9,90.4C62.4,203.6,61.2,219.4,49.1,226.1z M-88.6,221.2c6.1-16.4-9.1-30.9-24.9-24.9
			c-4.9,1.8-8.5,5.5-10.3,10.3c-6.1,16.4,9.1,30.9,24.9,24.9C-94.1,229.1-90.5,225.5-88.6,221.2z"/>
	</g>
	<g display="none">
		<path display="inline" d="M3,346.2c-21.2,0-40,8.5-54,22.4l-175.3-100.7c1.2-5.5,1.8-10.9,1.8-16.4c0-7.9-1.2-15.8-3.6-22.4
			l175.9-95.8c14,14.6,33.4,24.3,55.2,24.3c41.9,0,75.8-34,75.8-75.8S44.8,5.3,3,5.3s-75.8,34-75.8,75.8c0,6.7,0.6,12.7,2.4,18.8
			L-248.2,197c-13.3-12.7-32.2-21.2-52.2-21.2c-41.9,0-75.8,34-75.8,75.8s34,75.8,75.8,75.8c22.4,0,43.1-10.3,57-26.1L-69.8,402
			c-1.8,6.7-3,13.3-3,20c0,41.9,34,75.8,75.8,75.8s75.8-34,75.8-75.8S44.8,346.2,3,346.2z M3,42.9c20.6,0,37.6,17,37.6,37.6
			s-17,37.6-37.6,37.6c-14.6,0-26.7-7.9-33.4-20l0,0c-3-5.5-4.9-11.5-4.9-18.2C-34.6,59.9-17.7,42.9,3,42.9z M-300.4,289.2
			c-20.6,0-37.6-17-37.6-37.6s17-37.6,37.6-37.6c20.6,0,37.6,17,37.6,37.6S-279.7,289.2-300.4,289.2z M3,460.2
			c-20.6,0-37.6-17-37.6-37.6S-17.7,385,3,385s37.6,17,37.6,37.6S23.6,460.2,3,460.2z"/>
	</g>
	<g display="none">
		<path display="inline" d="M-228.2,105.4c-7.9-7.3-7.9-20.6,0-27.9l66.1-66.1c7.3-7.3,19.4-7.3,26.7,0l66.1,66.1
			c7.9,7.9,7.9,20.6,0,27.9c-3.6,3-7.9,4.9-12.7,4.9c-4.9,0-10.3-1.8-14-5.5l-34.6-35.2V308c0,10.3-7.9,18.8-18.2,18.8
			s-18.2-8.5-18.2-18.8V69.6l-35.2,34.6c-3.6,3.6-8.5,5.5-13.3,5.5C-220.3,110.2-225.1,108.4-228.2,105.4z M3,130.2h-60.7
			c-9.7,0-18.8,6.7-19.4,16.4c-1.2,11.5,7.3,20,18.2,20h52.2c5.5,0,9.7,3.6,9.7,9.1v274.8c0,5.5-4.2,7.3-9.7,7.3h-283.9
			c-5.5,0-9.7-1.8-9.7-7.3V175.7c0-5.5,4.2-9.1,9.7-9.1h51c9.7,0,18.8-6.7,19.4-16.4c1.2-11.5-7.9-20-18.8-20h-61.3
			c-21.2,0-36.4,15.2-36.4,35.8v293.6c0,21.2,15.2,40,36.4,40H3c21.2,0,36.4-19.4,36.4-40V166C39.4,145.4,24.2,130.2,3,130.2z"/>
	</g>
	<g display="none">
		<path display="inline" d="M-148.7,194.5c-10.3,0-18.2-8.5-18.2-18.8V24.1c0-10.3,7.9-18.8,18.2-18.8s18.2,8.5,18.2,18.8v151.7
			C-130.5,186-138.4,194.5-148.7,194.5z M69.1,280.1c0-89.8-52.8-169.3-135.3-202.6c-9.7-3.6-20.6,0.6-24.9,10.3
			c-3.6,9.7,0.6,20.6,10.3,24.9c67.3,27.3,111.6,92.8,111.6,167.4c0,99.5-80.7,180.2-180.2,180.2s-179.6-80.7-179.6-180.2
			c0-73.4,43.7-138.9,112.2-166.8c9.7-4.2,14.6-15.2,10.3-24.9c-4.2-9.7-15.2-14.6-24.9-10.3c-82.5,34-135.3,112.8-135.3,202
			c0,120.1,97.7,217.8,217.8,217.8S69.1,400.2,69.1,280.1z"/>
	</g>
	<g display="none">
		<path display="inline" d="M20.6,107.8l60.1-60.1c7.3-7.3,7.9-18.2,1.8-26.1c-7.3-8.5-20-9.1-27.9-1.2L-6.1,81.1L-136,69.6
			c-10.9-1.2-22.4,3-30.3,10.9L-374.4,288c-14.6,14.6-14.6,38.8,0,53.4L-240.3,476c14.6,14.6,38.8,14.6,53.4,0L21.2,267.9
			c7.9-7.9,12.1-18.8,10.9-30.3L20.6,107.8z M-92.9,194.5c7.3,7.3,7.3,19.4,0,26.7s-19.4,7.3-26.7,0s-7.3-19.4,0-26.7
			S-100.2,187.3-92.9,194.5z M-220.3,442.7L-341,321.9c-3.6-3.6-3.6-9.7,0-13.3l198.4-198.4c1.8-1.8,4.9-3,7.3-3l74,6.7
			c7.9,0.6,11.5,10.3,6.1,16.4L-82,156.3c-21.8-10.3-49.7-6.1-66.7,13.3c-19.4,21.2-18.8,55.2,0.6,76.4
			c21.8,23.7,59.5,24.3,81.9,1.8c17.6-17.6,21.2-43.7,10.9-64.9l26.7-26.7c5.5-5.5,15.2-2.4,16.4,6.1l6.7,74c0,3-0.6,5.5-3,7.3
			l-198.4,199C-210.6,446.3-216.6,446.3-220.3,442.7z M-213.6,368.6c-7.3,7.3-19.4,7.3-26.7,0L-267,342c-7.3-7.3-7.3-19.4,0-26.7
			c7.3-7.3,19.4-7.3,26.7,0l26.7,26.7C-206.3,349.2-206.3,361.4-213.6,368.6z M-133.5,315.3c7.3,7.3,7.3,19.4,0,26.7
			c-7.3,7.3-19.4,7.3-26.7,0l-80.1-80.7c-7.3-7.3-7.3-19.4,0-26.7s19.4-7.3,26.7,0L-133.5,315.3z"/>
	</g>
	<g display="none">
		<path display="inline" d="M-148.7,458.4c-114.7,0-208.1-93.4-208.1-207.5s93.4-207.5,208.1-207.5S59.4,136.9,59.4,251
			c0,41.3-12.1,80.7-35.2,115.3c-5.5,8.5-17,10.9-25.5,4.9c-8.5-5.5-10.9-17-4.9-25.5c18.8-27.9,28.5-60.7,28.5-94.6
			c0-94-77-170.5-171.1-170.5S-319.8,156.9-319.8,251S-243.3,422-148.7,422c33.4,0,66.1-9.7,94-27.9c8.5-5.5,20-3,25.5,5.5
			c5.5,8.5,3,20-5.5,25.5C-68.6,446.9-108.1,458.4-148.7,458.4z M-53.5,240.6l-80.1-80.1c-4.2-4.2-10.3-6.1-15.8-5.5
			c-5.5-0.6-11.5,1.2-15.8,5.5l-80.1,80.1c-6.7,6.7-7.9,17-3,24.3c6.7,10.3,20.6,10.9,29.1,3l43.7-43.1c3-3,8.5-0.6,8.5,3.6v108
			c0,8.5,4.2,16.4,12.1,18.8c12.7,4.2,24.3-5.5,24.3-18.2V229.7c0-4.2,5.5-6.1,8.5-3.6l41.9,41.9c8.5,8.5,22.4,7.3,29.1-3
			C-45.6,257.6-47.4,247.3-53.5,240.6z"/>
	</g>
	<g display="none">
		<g display="inline">
			<path d="M21.8,156.9h-340.9c-21.2,0-37.6,17-37.6,37.6v265.7c0,21.2,17,37.6,37.6,37.6H21.8c21.2,0,37.6-17,37.6-37.6V194.5
				C60,173.9,43,156.9,21.8,156.9z M12.7,460.2h-322.7c-5.5,0-9.7-4.2-9.7-9.7V204.2c0-5.5,4.2-9.7,9.7-9.7h18.8
				c5.5,0,9.7,4.2,9.7,9.7v198.4c0,9.7,7.3,18.8,17,19.4c11.5,1.2,20.6-7.9,20.6-18.8v-199c0-5.5,4.2-9.7,9.7-9.7H12.1
				c5.5,0,9.7,4.2,9.7,9.7v246.3C21.8,456,17.5,460.2,12.7,460.2z"/>
			<path d="M-243.3,99.9c0-27.9,20-51,46.1-55.8c4.2-0.6,7.3,3.6,4.9,7.3c-8.5,14-13.3,30.9-13.3,48.5v18.8
				c0,10.3,8.5,18.8,18.8,18.8l0,0c10.3,0,18.8-8.5,18.8-18.8V99.9c0-12.7,4.2-24.3,11.5-34c3.6-4.9,11.5-4.9,15.2,0
				c7.3,9.7,11.5,21.2,11.5,34v18.8c0,10.3,8.5,18.8,18.8,18.8l0,0c10.3,0,18.8-8.5,18.8-18.8V99.9c0-17.6-4.9-34.6-13.3-48.5
				c3-4.9,1.8-2.4,4.9-7.3c26.1,4.9,46.1,27.9,46.1,55.8v18.8c0,10.3,8.5,18.8,18.8,18.8l0,0c10.3,0,18.8-8.5,18.8-18.8v-16.4
				c0-49.7-37-92.8-86.1-97.1c-16.4-1.8-32.8,1.2-46.7,7.3l0,0c-14-6.1-29.7-9.1-46.7-7.3c-49.1,4.2-86.1,47.3-86.1,97.1v16.4
				c0,10.3,8.5,18.8,18.8,18.8l0,0c10.3,0,18.8-8.5,18.8-18.8V99.9H-243.3z"/>
		</g>
	</g>
	<g display="none">
		<path display="inline" d="M-15.8,213.9v246.3c0,21.2-17,37.6-37.6,37.6H-247c-18.8,0-34.6-15.2-34.6-34.6V213.9
			c0-14,15.2-24.3,30.3-15.8c4.9,3,7.9,8.5,7.9,14v239c0,5.5,4.2,9.7,9.7,9.7h170.5c5.5,0,9.7-4.2,9.7-9.7v-239c0-5.5,3-10.9,7.9-14
			C-31,189.1-15.8,199.4-15.8,213.9z M-111.1,384.4h-75.2c-10.3,0-18.8,8.5-18.8,18.8c0,10.3,8.5,18.8,18.8,18.8h75.8
			c10.3,0,18.8-8.5,18.8-18.8C-91.7,392.9-100.2,384.4-111.1,384.4z M-111.1,308.6h-75.2c-10.3,0-18.8,8.5-18.8,18.8
			c0,10.3,8.5,18.8,18.8,18.8h75.8c10.3,0,18.8-8.5,18.8-18.8C-91.7,317.1-100.2,308.6-111.1,308.6z M-111.1,232.8h-75.2
			c-10.3,0-18.8,8.5-18.8,18.8c0,10.3,8.5,18.8,18.8,18.8h75.8c10.3,0,18.8-8.5,18.8-18.8C-91.7,241.2-100.2,232.8-111.1,232.8z
			 M-281.6,156.9c0-10.3,8.5-18.8,18.8-18.8c0-35.2,24.3-64.9,57-73.4V43.5c0-31.5,25.5-57,57-57s57,25.5,57,57v21.2
			c32.8,8.5,57,38.2,57,73.4c10.3,0,18.8,8.5,18.8,18.8c0,10.3-8.5,18.8-18.8,18.8h-228.1C-273.1,175.7-281.6,167.2-281.6,156.9z
			 M-224.5,137.5h151.7c0-20.6-17-37.6-37.6-38.2l0,0c-10.3,0-18.8-8.5-18.8-18.8V42.9c0-10.9-9.7-20-20.6-18.8
			c-9.7,1.2-17,9.7-17,19.4v37c0,10.3-8.5,18.8-18.8,18.8l0,0C-207.5,99.9-224.5,116.9-224.5,137.5z"/>
	</g>
	<g display="none">
		<path display="inline" d="M-148.7,458.4c-114.7,0-208.1-93.4-208.1-207.5s93.4-207.5,208.1-207.5S59.4,136.9,59.4,251
			c0,41.3-12.1,80.7-35.2,115.3c-5.5,8.5-17,10.9-25.5,4.9c-8.5-5.5-10.9-17-4.9-25.5c18.8-27.9,28.5-60.7,28.5-94.6
			c0-94-77-170.5-171.1-170.5S-319.8,156.9-319.8,251S-243.3,422-148.7,422c33.4,0,66.1-9.7,94-27.9c8.5-5.5,20-3,25.5,5.5
			c5.5,8.5,3,20-5.5,25.5C-68.6,446.9-108.1,458.4-148.7,458.4z M-51,238.2c-6.7-10.3-20.6-10.9-29.1-3L-122,277
			c-3,3-8.5,0.6-8.5-3.6V166c0-12.1-10.9-21.8-24.3-18.2c-7.9,2.4-12.1,10.3-12.1,18.8v108c0,4.2-5.5,6.1-8.5,3.6l-43.1-43.1
			c-8.5-8.5-22.4-7.3-29.1,3c-5.5,7.9-3.6,18.2,3,24.3l79.5,80.1c4.2,4.2,10.3,6.1,15.8,5.5c5.5,0.6,11.5-1.2,15.8-5.5l80.1-80.1
			C-47.4,255.8-45.6,245.5-51,238.2z"/>
	</g>
	<g display="none">
		<path display="inline" d="M-205.7,422c0,21.2-17,37.6-37.6,37.6s-37.6-17-37.6-37.6c0-20.6,17-37.6,37.6-37.6
			S-205.7,401.4-205.7,422z M-15.8,384.4c-21.2,0-37.6,17-37.6,37.6c0,20.6,17,37.6,37.6,37.6s37.6-17,37.6-37.6
			C21.8,401.4,4.8,384.4-15.8,384.4z M-223.9,118.1c-9.7,0-20,6.1-20,18.2c0,12.7,7.9,18.2,18.8,18.2H41.8c6.1,0,10.9,6.7,9.1,12.7
			L26,266.7c-0.6,3.6-3.6,6.7-7.3,7.3l-240.8,48.5c-4.9,1.2-9.7-1.8-10.9-6.7L-301,76.2c-2.4-7.9-9.7-12.7-18.2-12.7H-375
			c-9.7,0-18.8,6.7-19.4,16.4c-1.2,11.5,7.9,20,18.8,20h35.2c4.2,0,7.9,3,9.1,6.7l64.9,229.3c5.5,19.4,24.9,30.9,44.3,26.7
			l255.4-52.2c14.6-3,26.1-14,29.1-27.9L94,153.9c4.2-18.2-9.1-35.8-27.9-35.8L-223.9,118.1z"/>
	</g>
	<g display="none">
		<path display="inline" d="M-111.1,175.7c0,21.2-17,37.6-37.6,37.6s-37.6-17-37.6-37.6s17-37.6,37.6-37.6S-111.1,154.5-111.1,175.7
			z M-136,531.2c3.6-3,14-12.1,21.2-17l2.4-1.8c13.3-9.1,38.8-25.5,38.8-71l0,0c0-10.3-8.5-18.8-18.8-18.8l0,0
			c-10.3,0-18.8,8.5-18.8,18.8l0,0c0,24.9-10.3,31.5-21.8,39.4l-2.4,1.2c-4.2,3-9.1,6.7-13.3,9.7c-4.2-3.6-9.1-6.7-13.3-9.7
			l-2.4-1.2c-13.3-8.5-22.4-14-22.4-39.4l0,0c0-10.3-8.5-18.8-18.8-18.8l0,0c-10.3,0-18.8,8.5-18.8,18.8l0,0
			c0,46.1,24.3,61.3,40,71.6l1.8,1.2c9.7,6.1,20.6,16.4,20.6,17l12.7,12.1L-136,531.2z M45.4,384.4c0,18.2-5.5,35.8-15.2,51.6
			c-3,4.9-8.5,7.9-14.6,8.5c-0.6,0-0.6,0-1.2,0c-5.5,0-10.9-2.4-14.6-6.7c-21.8-25.5-43.1-34.6-77.7-34.6c-1.2,0-2.4,0-3.6-0.6v0.6
			h-48.5V422c0,10.3-7.9,18.8-18.2,18.8s-18.2-8.5-18.2-18.8v-18.8h-38.8c-34.6,0-55.8,9.1-77.7,34.6c-3.6,4.2-9.1,6.7-14.6,6.7
			c-0.6,0-0.6,0-1.2,0c-6.1-0.6-11.5-3.6-14.6-8.5c-9.7-15.2-15.2-33.4-15.2-51.6c0-44.3,30.3-81.3,71.6-91.6
			c-3-18.2-4.9-38.2-4.9-60.1c0-94,58.8-227.5,114-227.5c35.8,0,64.9,50.4,78.9,80.1c21.8,46.7,35.2,101.9,35.2,147.4
			c0,21.2-1.8,40-4.2,57.6C8.4,294.6,45.4,335.3,45.4,384.4z M-235.4,368c-3.6-7.9-7.3-17.6-10.9-28.5c-1.8-5.5-7.9-8.5-13.3-5.5
			c-18.8,9.1-31.5,28.5-31.5,51c0,2.4,0,5.5,0.6,7.9C-274.3,379.6-256.1,371.7-235.4,368z M-102.6,366.8
			c9.7-18.2,29.7-66.1,29.7-133.5c0-40-11.5-89.8-31.5-131.6c-20.6-44.3-40-58.8-44.3-58.8c-16.4,0-75.8,100.1-75.8,189.3
			c0,24.9,3,47.3,7.3,66.7c1.8,3,2.4,6.1,2.4,9.1c0,0.6,0,1.2,0,1.8c6.7,26.7,15.2,44.3,20.6,56.4h27.3V308
			c0-10.3,7.9-18.8,18.2-18.8s18.2,8.5,18.2,18.8v58.8H-102.6z M7.8,384.4c0-27.9-20-51-46.7-55.8c-4.9-0.6-9.7,1.8-10.9,6.7
			c-3.6,12.1-7.9,22.4-11.5,30.9c26.7,2.4,48.5,10.3,68.6,26.1C7.8,389.3,7.8,386.8,7.8,384.4z"/>
	</g>
	<g display="none">
		<path display="inline" d="M-148.7,5.3C-284.6,5.3-395,115.7-395,251.6s110.4,246.3,246.3,246.3S97.6,387.4,97.6,251.6
			S-12.8,5.3-148.7,5.3z M26,137.5c-3.6,0-7.9,0-11.5,0c-4.2,0-7.9,0-10.9,0c-9.7,0-15.8-1.8-18.8-3c0.6-19.4,3.6-28.5,9.1-35.8
			C5.4,110.2,16.3,123.6,26,137.5z M-203.3,50.2l2.4,12.1c2.4-0.6,4.9,0,7.3,1.8c1.2,0.6,2.4,2.4,2.4,3.6c0,0.6,0,0.6,0,1.2
			c0,4.9,0,18.2,12.7,27.3c6.7,4.9,14.6,5.5,21.8,5.5c1.8,0,5.5,0.6,7.9,0.6c-0.6,11.5-3.6,16.4-7.9,22.4
			c-4.9,6.7-10.9,15.8-10.9,30.9c-5.5,0.6-15.2,0.6-18.8,0.6c-23.1,0-57,20-57,57c0,39.4,28.5,57,57,57c8.5,0,22.4,4.9,29.7,10.3
			c3.6,3,8.5,6.1,8.5,27.9c0,10.3,0,15.8-31.5,42.5c-21.2,18.2-40.6,46.7-55.2,71c-12.7-20.6-27.3-60.1-27.3-75.8
			c0-18.8,4.2-26.1,9.7-34.6c3-4.9,6.1-9.7,8.5-16.4c8.5-25.5,0-52.8-23.7-76.4c-4.2-4.2-9.1-8.5-13.3-12.1
			c-14-10.9-19.4-15.8-19.4-30.9c0,0-3.6-35.2-4.9-52.2c-0.6-7.9,4.9-14,4.9-14S-245.8,61.7-203.3,50.2z M-356.2,251.6
			c0-30.9,7.3-60.1,19.4-86.8v10.9c0,33.4,17.6,48.5,32.2,60.7c3.6,3,7.3,6.1,10.3,9.7c13.3,13.3,18.2,26.1,14,37.6
			c-0.6,2.4-2.4,4.9-4.9,8.5c-6.7,10.3-15.2,24.9-15.2,54.6c0,10.3,6.7,37.6,17.6,64.3C-327.7,372.9-356.2,315.3-356.2,251.6z
			 M-210.6,450.5c13.3-22.4,35.2-54,55.2-71c32.8-27.9,44.3-43.1,44.3-71.6c0-29.1-6.7-45.5-23.7-58.2
			c-13.3-10.3-35.8-17.6-52.2-17.6c-18.8,0-18.8-13.3-18.8-18.8c0-13.3,14.6-18.8,18.8-18.8c21.2,0,36.4-0.6,47.3-12.1
			c6.7-6.7,9.7-15.2,9.7-26.1c0-3,0.6-4.2,4.2-9.7c6.1-8.5,14.6-21.2,14.6-46.7c0-32.2-31.5-34.6-43.1-35.8v-0.6
			c-1.2-7.3-3.6-14-7.9-20c4.2,0,8.5-0.6,13.3-0.6c41.3,0,79.5,12.1,111.6,32.8c-14.6,18.8-17,41.3-17,61.9
			c0,23.1,22.4,37.6,57,37.6c3,0,7.3,0,11.5,0c9.1,0,18.8,0,25.5,0h0.6c1.2,0,3,0,4.2-0.6c2.4,6.1,4.9,12.7,6.7,19.4
			c-40.6,0.6-125,4.9-125,75.8c0,44.9,24.3,59.5,38.8,67.9c2.4,1.8,4.9,3,7.3,4.2c3.6,2.4,9.1,14,10.9,61.9c0,3,0,5.5,0,7.9
			c-35.8,29.7-82.5,47.9-132.9,47.9C-176.6,460.2-210.6,450.5-210.6,450.5z M20,374.1c-2.4-26.7-8.5-50.4-24.9-61.9
			c-3-2.4-6.7-4.2-9.7-6.1c-12.7-7.3-20-12.1-20-35.2c0-19.4,11.5-37.6,94-37.6c0.6,6.1,0.6,12.7,0.6,18.8
			C60,297.1,44.8,339.5,20,374.1z"/>
	</g>
	<g display="none">
		<path display="inline" d="M-148.7,5.3C-284.6,5.3-395,115.7-395,251.6s110.4,246.3,246.3,246.3S97.6,387.4,97.6,251.6
			S-12.8,5.3-148.7,5.3z M60,251.6c0,6.7-0.6,12.7-0.6,18.8c-11.5,0-16.4-6.1-25.5-21.2c-9.1-15.2-21.2-35.2-49.7-35.2
			c-10.9,0-19.4,3-26.1,9.7c-10.9,10.9-10.3,26.1-10.3,39.4c0,7.9,0,15.2-1.2,22.4C-63.2,328-80.8,379-92.3,398.4l0,0
			c-1.8-5.5-3-10.9-4.2-16.4c-7.9-30.3-17.6-64.3-46.7-72.8c-12.1-3-24.3-10.3-24.3-38.2c0-30.9,10.3-37.6,57-37.6h9.7
			c26.1,0,47.3-22.4,47.3-48.5s-21.2-48.5-47.3-48.5h-9.7c-9.7,0-15.8-1.2-18.8-2.4c0-6.1,0-10.9,0.6-14c1.2-0.6,3-1.2,6.7-2.4
			l1.2-0.6c1.8-0.6,39.4-20,47.3-60.1C4.2,86.6,60,163,60,251.6z M-289.4,98.1c3,1.8,5.5,3,7.3,3.6c0,0,0.6,0,0.6,0.6
			c-0.6,12.1-3.6,17-7.9,23.1c-4.9,6.7-10.9,15.8-10.9,30.9c-5.5,0.6-15.2,0.6-18.8,0.6c-5.5,0-10.9,1.2-16.4,3
			C-324.6,136.3-308.9,115.7-289.4,98.1z M-325.2,362.6c-19.4-30.3-30.9-66.7-32.2-104.9c10.3,8.5,24.3,12.7,37.6,12.7
			c8.5,0,22.4,4.9,29.7,10.3c3.6,3,8.5,6.1,8.5,27.9c0,10.3,0,15.8-31.5,42.5C-316.7,354.1-321,358.3-325.2,362.6z M-148.7,460.2
			c-60.1,0-114.7-25.5-152.9-66.7c4.9-5.5,9.1-9.7,13.3-13.3c32.8-27.9,44.3-43.1,44.3-71.6c0-29.1-6.7-45.5-23.7-58.2
			c-13.3-10.3-35.8-17.6-52.2-17.6c-18.8,0-18.8-13.3-18.8-18.8c0-13.3,14.6-18.8,18.8-18.8c21.2,0,36.4-0.6,47.3-12.1
			c6.7-6.7,9.7-15.2,9.7-26.1c0-3,0.6-4.2,4.2-9.7c6.1-8.5,14.6-21.2,14.6-46.7c0-14-6.1-21.8-12.7-26.7
			c31.5-18.8,67.9-29.7,107.4-29.7c12.7,0,25.5,1.2,37.6,3.6c-1.8,21.8-23.1,34-26.7,36.4c-27.9,10.9-29.7,24.3-29.7,56.4
			c0,23.1,22.4,39.4,57,39.4h9.7c5.5,0,9.7,3.6,9.7,9.1c0,5.5-4.2,7.9-9.7,7.9h-9.7c-33.4,0-94.6-1.2-94.6,74.6
			c0,22.4,6.7,61.9,51.6,74.6c8.5,2.4,15.2,28.5,20,45.5c1.8,5.5,3,11.5,4.9,17c8.5,29.1,29.1,32.8,37,32.8
			c18.8,0,32.8-17.6,49.7-62.5c10.9-29.1,21.2-63.7,25.5-84.9c2.4-11.5,2.4-22.4,2.4-30.9c0-3,0-7.9,0-10.9c4.9,0.6,7.9,4.2,15.2,17
			c8.5,14.6,21.8,36.4,51,39.4C27.2,395.3-53.5,460.2-148.7,460.2z"/>
	</g>
	<g display="none">
		<path display="inline" d="M97.6,156.9c0-14.6-6.7-23.1-12.1-27.9c-12.1-10.9-32.2-14-66.1-9.7C9,120.5,1.8,130.2,3,140.5
			c1.2,10.3,10.9,17.6,21.2,16.4c23.1-3,34-3,35.2,0c-2.4,6.7-20,21.8-46.7,39.4C-10.4,129.6-74.1,81.1-148.7,81.1
			c-85.5,0-156.5,63.1-168.6,145.6c-1.2,0.6-1.8,0.6-3,1.2c-63.7,37.6-90.4,69.2-80.1,96.5c6.7,18.8,27.9,27.9,64.3,27.9
			c11.5,0,24.3-0.6,38.2-2.4c3-0.6,6.1-0.6,9.1-1.2c30.9,44.3,81.9,74,140.1,74c94,0,170.5-76.4,170.5-170.5c0-5.5,0-10.9-0.6-15.8
			C66.7,207.3,97.6,178.8,97.6,156.9z M-272.5,206.7c3-7.3,9.7-12.1,17.6-12.1h143.2c9.7,0,18.8-7.3,19.4-17
			c1.2-11.5-7.9-20.6-18.8-20.6h-117.7c-4.2,0-6.7-5.5-3-8.5c23.1-18.2,51.6-29.7,83.1-29.7c61.3,0,112.2,41.3,128,97.7
			c-9.7,5.5-20,10.9-30.9,16.4h-191.1c-9.7,0-18.8,7.3-19.4,17c-1.2,11.5,7.9,20.6,18.8,20.6h101.9c-49.7,18.2-92.8,29.7-128,36.4
			c-7.9-17-12.1-35.2-12.1-55.2C-281.6,235.8-277.9,220.6-272.5,206.7z M-364.1,311c2.4-6.1,14-19.4,45.5-40
			c1.8,14.6,4.9,28.5,10.3,41.3C-337.4,315.9-356.8,314.7-364.1,311z M-148.7,384.4c-17.6,0-34.6-3.6-49.7-9.7
			c-4.9-1.8-3.6-9.1,1.8-9.1h85.5c9.7,0,18.8-7.3,19.4-17c1.2-11.5-7.9-20.6-18.8-20.6h-83.7c23.1-6.7,46.7-14,70.4-23.1
			c27.3-9.7,54.6-21.2,80.7-34h20c3,0,5.5,2.4,4.9,5.5C-29.8,337.7-83.8,384.4-148.7,384.4z"/>
	</g>
	<g display="none">
		<path display="inline" d="M-167.5,365.6v-85.5c0-5.5-4.2-9.7-9.7-9.7h-85.5c-10.9,0-20-9.7-18.8-20.6c1.2-9.7,9.7-17,19.4-17h84.3
			c5.5,0,9.7-4.2,9.7-9.7v-85.5c0-10.9,9.7-20,20.6-18.8c9.7,1.2,17,9.7,17,19.4v84.3c0,5.5,4.2,9.7,9.7,9.7h85.5
			c10.9,0,20,9.7,18.8,20.6c-1.2,9.7-9.7,17-19.4,17h-84.3c-5.5,0-9.7,4.2-9.7,9.7v84.3c0,9.7-7.3,18.8-17,19.4
			C-158.4,385-167.5,376.5-167.5,365.6z M-148.7,5.3C-284.6,5.3-395,115.7-395,251.6s110.4,246.3,246.3,246.3
			c61.9,0,121.3-23.1,167.4-65.5c7.9-7.3,7.9-18.8,1.2-26.7c-7.3-7.9-18.8-7.9-26.7-1.2c-38.8,35.8-89.2,55.8-141.3,55.8
			c-115.9,0-209.3-93.4-209.3-208.7S-264,42.9-148.7,42.9S60,136.3,60,251.6c0,34.6-8.5,69.2-25.5,99.5c-4.9,9.1-1.8,20.6,7.3,25.5
			c9.1,4.9,20.6,1.8,25.5-7.3C86.7,333.5,97,292.8,97,251.6C97.6,115.7-12.8,5.3-148.7,5.3z"/>
	</g>
	<g display="none">
		<path display="inline" d="M40,232.8h-309.4c-8.5,0-12.7-10.3-6.7-16.4l46.1-46.1c7.3-7.3,7.3-19.4,0-26.7s-19.4-7.3-26.7,0
			l-95.2,94.6c-7.3,7.3-7.3,19.4,0,26.7l94,94c3.6,3.6,8.5,5.5,13.3,5.5s9.7-1.8,13.3-5.5c7.3-7.3,7.3-19.4,0-26.7l-44.9-45.5
			c-6.1-6.1-1.8-16.4,6.7-16.4H41.2c10.9,0,20-9.7,18.8-20.6C58.8,240,49.7,232.8,40,232.8z"/>
	</g>
	<g display="none">
		<g display="inline">
			<path d="M-148.7,24.1c-125.6,0-227.5,101.9-227.5,227.5s101.9,227.5,227.5,227.5S78.8,377.1,78.8,251.6S-23.1,24.1-148.7,24.1z
				 M-121.4,64.1c6.1,0.6,9.7,7.3,7.3,12.7c-6.1,13.3-19.4,23.1-34.6,23.1s-29.1-9.7-34.6-23.1c-2.4-5.5,1.2-12.1,7.3-12.7
				c9.1-1.2,18.2-1.8,27.3-1.8S-130.5,62.9-121.4,64.1z M-222.7,426.3c-18.8-7.9-35.8-18.8-51-32.2c-3.6-3-4.2-8.5-1.2-12.1
				c9.1-13.3,26.7-20,43.7-14.6c9.1,3,16.4,9.7,21.2,18.2c6.1,12.1,5.5,26.1-0.6,36.4C-213,426.3-217.9,428.1-222.7,426.3z
				 M-148.7,440.8c-4.9,0-10.3,0-15.2-0.6c-6.1-0.6-10.3-6.7-7.9-12.7c3-7.9,4.2-16.4,4.2-24.9c0-41.9-34-75.8-75.8-75.8
				c-20.6,0-39.4,8.5-53.4,22.4c-4.2,4.2-11.5,3.6-15.2-1.8c-17-28.5-26.1-61.3-26.1-96.5c0-74,42.5-138.3,104.9-169.9
				c4.9-2.4,11.5,0,13.3,5.5c10.3,29.1,38.8,50.4,71.6,50.4s61.3-21.2,71.6-50.4c1.8-5.5,7.9-7.9,13.3-5.5
				C-1.3,112,41.8,176.3,41.8,251C40.6,355.9-44.4,440.8-148.7,440.8z"/>
			<path d="M-72.9,194.5c-41.9,0-75.8,34-75.8,75.8s34,75.8,75.8,75.8S3,312.2,3,270.4S-31,194.5-72.9,194.5z M-72.9,308.6
				c-20.6,0-37.6-17-37.6-37.6s17-37.6,37.6-37.6s37.6,17,37.6,37.6S-52.2,308.6-72.9,308.6z"/>
			<path d="M-233.6,164.2c-9.1-5.5-20.6-2.4-26.1,6.7c-5.5,9.1-2.4,20.6,6.7,26.1c6.1,3.6,9.7,9.7,9.7,16.4
				c0,10.3-8.5,18.8-18.8,18.8c-3.6,0-6.7-0.6-9.7-2.4c-9.1-5.5-20.6-1.8-26.1,7.3c-5.5,9.1-1.8,20.6,7.3,26.1
				c8.5,4.9,18.2,7.3,28.5,7.3c31.5,0,57-25.5,57-57C-205.7,193.3-216.6,174.5-233.6,164.2z"/>
		</g>
	</g>
	<g display="none">
		<path display="inline" d="M-35.9,269.8h-84.3h-57h-85.5c-10.9,0-20-8.5-18.8-20c1.2-9.7,9.7-16.4,19.4-16.4h84.3h57h85.5
			c10.9,0,20,8.5,18.8,20C-17.1,263.1-26.2,269.8-35.9,269.8z M-148.7,5.3C-284.6,5.3-395,115.7-395,251.6s110.4,246.3,246.3,246.3
			c61.9,0,121.3-23.1,167.4-65.5c7.9-7.3,7.9-18.8,1.2-26.7c-7.3-7.9-18.8-7.9-26.7-1.2c-38.8,35.8-89.2,55.8-141.3,55.8
			c-115.9,0-209.3-93.4-209.3-208.7S-264,42.9-148.7,42.9S60,136.3,60,251.6c0,34.6-8.5,69.2-25.5,99.5c-4.9,9.1-1.8,20.6,7.3,25.5
			c9.1,4.9,20.6,1.8,25.5-7.3C86.7,333.5,97,292.8,97,251.6C97.6,115.7-12.8,5.3-148.7,5.3z"/>
	</g>
	<g>
		<path d="M-21.3,162.4c7.3,7.3,7.3,19.4,0,26.7L-173,340.7c-3.6,3.6-8.5,5.5-13.3,5.5s-9.7-1.8-13.3-5.5l-76.4-75.8
			c-7.3-7.3-7.3-19.4,0-26.7c7.3-7.3,19.4-7.3,26.7,0l62.5,62.5l138.3-138.3C-40.7,155.1-29.2,155.1-21.3,162.4z M-148.7,5.3
			C-284.6,5.3-395,115.7-395,251.6s110.4,246.3,246.3,246.3c61.9,0,121.3-23.1,167.4-65.5c7.9-7.3,7.9-18.8,1.2-26.7
			c-7.3-7.9-18.8-7.9-26.7-1.2c-38.8,35.8-89.2,55.8-141.3,55.8c-115.9,0-209.3-93.4-209.3-208.7S-264,42.9-148.7,42.9
			S60,136.3,60,251.6c0,34.6-8.5,69.2-25.5,99.5c-4.9,9.1-1.8,20.6,7.3,25.5c9.1,4.9,20.6,1.8,25.5-7.3
			C86.7,333.5,97,292.8,97,251.6C97.6,115.7-12.8,5.3-148.7,5.3z"/>
	</g>
	<g display="none">
		<path display="inline" d="M-148.7,385v115.3 M-130.5,497.9V384.4c0-10.3-7.9-18.8-18.2-18.8s-18.2,8.5-18.2,18.8v114
			c0,10.3,7.9,18.8,18.2,18.8S-130.5,508.8-130.5,497.9z M3,309.8c0-4.9-3.6-10.3-6.7-14l-72.2-88.6v-81.9l73.4-89.8
			c4.9-5.5,6.1-14.6,3-21.2S-8.6,2.2-15.8,2.2h-265.7c-7.3,0-14,5.5-17,12.1s-3.6,15.2,0.6,20.6l70.4,90.4v81.3l-70.4,89.8
			c-4.9,5.5-4.9,15.2-1.8,21.8c3,6.7,10.3,12.1,17.6,12.1h265.7l0,0C-5.5,330.4,3,320.7,3,309.8z M-189.9,224.9
			c2.4-3.6,4.9-6.7,4.9-10.9v-95.2c0-4.2-2.4-7.3-4.9-10.9l-52.2-62.5h186.2l-52.2,63.1c-2.4,3.6-4.9,6.7-4.9,10.9v94.6
			c0,4.2,2.4,7.9,4.9,10.9l52.8,63.1h-186.8L-189.9,224.9z"/>
	</g>
	<g display="none">
		<path display="inline" d="M-82,345.6l-66.7-66.7l-66.7,66.7c-7.9,7.9-20.6,7.3-27.9-1.2c-6.1-7.9-5.5-18.8,1.8-26.1l66.7-66.7
			l-66.7-66.7c-7.9-7.9-7.3-20.6,1.2-27.9c7.9-6.1,18.8-5.5,26.1,1.8l66.7,66.7l66.7-66.7c7.9-7.9,20.6-7.3,27.9,1.2
			c6.1,7.9,5.5,18.8-1.8,26.1l-66.7,66.7l66.7,66.7c7.3,7.3,7.9,18.2,1.8,26.1C-60.7,352.9-74.1,353.5-82,345.6z M-148.7,5.3
			C-284.6,5.3-395,115.7-395,251.6s110.4,246.3,246.3,246.3c61.9,0,121.3-23.1,167.4-65.5c7.9-7.3,7.9-18.8,1.2-26.7
			c-7.3-7.9-18.8-7.9-26.7-1.2c-38.8,35.8-89.2,55.8-141.3,55.8c-115.9,0-209.3-93.4-209.3-208.7S-264,42.9-148.7,42.9
			S60,136.3,60,251.6c0,34.6-8.5,69.2-25.5,99.5c-4.9,9.1-1.8,20.6,7.3,25.5c9.1,4.9,20.6,1.8,25.5-7.3
			C86.7,333.5,97,292.8,97,251.6C97.6,115.7-12.8,5.3-148.7,5.3z"/>
	</g>
	<g display="none">
		<path display="inline" d="M21.8,497.9h-340.9c-10.3,0-18.8-8.5-18.8-18.8v-455c0-10.3,8.5-18.8,18.8-18.8h211.7
			c15.2,0,29.7,6.1,40,16.4L35.1,124.2c5.5,5.5,7.3,13.3,4.2,20.6s-9.7,11.5-17.6,11.5H-91.7c-10.3,0-18.8-8.5-18.8-18.8V42.9
			h-189.9v417.4H3V194.5c0-10.3,8.5-18.8,18.8-18.8s18.8,8.5,18.8,18.8v284.5C40.6,489.4,32.7,497.9,21.8,497.9z M-72.9,118.7h49.1
			l-49.1-49.1V118.7z"/>
	</g>
	<g display="none">
		<path display="inline" d="M40.6,63.5h-94.6c0-30.3-25.5-60.7-57-60.7h-75.2c-31.5,0-57,30.3-57,60.7H-338
			c-10.3,0-18.8,7.9-18.8,18.2s8.5,18.2,18.8,18.2H41.2C51.5,99.9,60,92,60,81.7S51.5,63.5,40.6,63.5z M-187.5,63.5
			c-11.5,0-13.3-17-1.8-18.2c0.6,0,1.8,0,2.4,0h75.8c0.6,0,1.8-0.6,2.4,0c11.5,1.2,9.7,18.2-1.8,18.2H-187.5z M40.6,138.7
			L21.8,480.9c-0.6,10.3-8.5,19.4-18.8,19.4h-303.3c-10.3,0-18.2-9.1-18.8-18.8L-338,139.9c-0.6-10.3,7.3-19.4,17.6-20
			c10.3-0.6,19.4,6.1,20,16.4l18.2,321.5h266.9L3,135.7c0.6-10.3,9.7-17.6,20-17.6C33.3,118.7,41.2,128.4,40.6,138.7z M-148.7,422
			c-10.3,0-18.2-8.5-18.2-18.8V175.7c0-10.3,7.9-18.8,18.2-18.8s18.2,8.5,18.2,18.8v227.5C-130.5,413.5-138.4,422-148.7,422z
			 M-224.5,422c-10.3,0-21.2-8.5-21.2-18.8V194.5c0-10.3,10.9-18.8,21.2-18.8c10.3,0,21.2,8.5,21.2,18.8v208.7
			C-203.3,413.5-214.2,422-224.5,422z M-72.9,422c-10.3,0-21.2-8.5-21.2-18.8V194.5c0-10.3,10.9-18.8,21.2-18.8
			c10.3,0,21.2,8.5,21.2,18.8v208.7C-51.6,413.5-62.6,422-72.9,422z"/>
	</g>
	<g display="none">
		<path display="inline" d="M-245.8,260.1L-245.8,260.1c-1.8,1.8-3,3.6-3.6,5.5L-290,377.7c-1.2,3.6,2.4,7.3,6.1,6.1l112.2-40.6
			c2.4-1.2,4.2-2.4,5.5-3.6l0,0L60.6,112.6l-78.9-78.9L-245.8,260.1z M-19.5,87.2L6,112.6l-194.7,194.7l-27.9,2.4l2.4-27.9
			L-19.5,87.2z M40.6,457.8H-338c-10.3,0-18.8-7.9-18.8-18.2s8.5-18.2,18.8-18.2H41.2c10.3,0,18.8,7.9,18.8,18.2
			S51.5,457.8,40.6,457.8z"/>
	</g>
	<g display="none">
		<path display="inline" d="M3,241.9c-10.3,0-18.2,8.5-18.2,18.8v160.8h-266.9V81.7h239.6l-148,147.4l0,0c-1.8,1.8-3,3.6-3.6,5.5
			l-40.6,111.6c-1.2,3.6,2.4,7.3,6.1,6.1l112.2-40.6c2.4-1.2,4.2-2.4,5.5-3.6l0,0L115.8,81.1L36.9,2.2L-6.1,46.5
			c-3.6-1.2-6.7-1.2-9.7-1.2h-284.5c-10.3,0-18.2,6.1-18.2,17v379.2c0,10.3,7.9,17,18.2,17H3c10.3,0,18.2-6.1,18.2-17V261.3
			C21.2,250.3,13.3,241.9,3,241.9z M61.2,81.1l-194.7,194.7l-27.3,2.4l2.4-27.9L36.3,55.6L61.2,81.1z"/>
	</g>
	<g display="none">
		<path display="inline" d="M3,138.7l-18.8,342.1c-0.6,10.3-9.1,18.8-18.8,18.8h-228.1c-10.3,0-18.2-9.1-18.8-18.8l-18.8-341.5
			c-0.6-10.3,7.3-19.4,17.6-20c10.3-0.6,19.4,6.1,20,16.4l18.2,322.1h191.7l18.2-322.1c0.6-10.3,9.7-18.2,20-17.6
			C-4.3,118.7,3.6,128.4,3,138.7z M-166.9,403.2V175.7c0-10.3-7.9-18.8-18.2-18.8c-10.3,0-18.2,8.5-18.2,18.8v227.5
			c0,10.3,7.9,18.8,18.2,18.8C-174.8,422-166.9,413.5-166.9,403.2z M-94.1,403.2V175.7c0-10.3-7.9-18.8-18.2-18.8
			s-18.2,8.5-18.2,18.8v227.5c0,10.3,7.9,18.8,18.2,18.8S-94.1,413.5-94.1,403.2z M40.6,81.7c0,10.3-8.5,18.2-18.8,18.2h-340.9
			c-10.3,0-18.8-7.9-18.8-18.2s8.5-18.2,18.8-18.2h75.8c0-30.3,25.5-60.7,57-60.7h75.8c31.5,0,57,30.3,57,60.7h75.8
			C32.7,63.5,40.6,71.4,40.6,81.7z M-88,54.4c0-4.9-4.2-9.1-9.1-9.1h-97.1c-4.9,0-9.1,4.2-9.1,9.1l0,0c0,4.9,4.2,9.1,9.1,9.1h97.1
			C-92.3,63.5-88,59.3-88,54.4L-88,54.4z"/>
	</g>
	<g display="none">
		<g display="inline">
			<path d="M60,81.1h-227.5c-10.3,0-18.8,8.5-18.8,18.8v37.6h-171.1c-10.3,0-18.8,8.5-18.8,18.8v57c0,10.3,8.5,18.8,18.8,18.8h57
				v151.7H-338v-93.4c0-9.7-7.3-18.8-17-19.4c-11.5-1.2-20.6,7.9-20.6,18.8v113.4c0,10.3,8.5,18.8,18.8,18.8H59.4
				c9.7,0,18.8-7.3,19.4-17c1.2-11.5-7.9-20.6-18.8-20.6h-82.5c-4.2,0-6.1-4.9-3-7.9C-8,359.5,3,335.3,3,308.6
				c0-26.7-10.9-50.4-28.5-67.9c-3-3-0.6-7.9,3-7.9h54c5.5,0,9.7,4.2,9.7,9.7v84.3c0,9.7,7.3,18.8,17,19.4
				c11.5,1.2,20.6-7.9,20.6-18.8V213.9v-114C78.8,89.6,70.3,81.1,60,81.1z M-338,194.5v-18.8h170.5c10.3,0,18.8-8.5,18.8-18.8v-37.6
				H40.6v75.8H-338V194.5z M-91.7,365.6c-31.5,0-57-25.5-57-57s25.5-57,57-57s57,25.5,57,57S-60.7,365.6-91.7,365.6z M-186.3,308.6
				c0,26.7,10.9,50.4,28.5,67.9c3,3,0.6,7.9-3,7.9H-253c-5.5,0-9.7-4.2-9.7-9.7V241.9c0-5.5,4.2-9.7,9.7-9.7h91.6
				c4.2,0,6.1,4.9,3,7.9C-175.4,257.6-186.3,281.9-186.3,308.6z"/>
			<path d="M-15.8,136.3h-75.8c-10.3,0-18.8,10.9-18.8,21.2s8.5,21.2,18.8,21.2h75.8c10.3,0,18.8-10.9,18.8-21.2
				S-5.5,136.3-15.8,136.3z"/>
			<path d="M-319.2,118.1h75.8c10.3,0,18.8-7.9,18.8-18.2s-8.5-18.2-18.8-18.2h-75.8c-10.3,0-18.8,7.9-18.8,18.2
				S-330.1,118.1-319.2,118.1z"/>
		</g>
	</g>
	<g display="none">
		<path display="inline" d="M-32.2,53.8l-13.3,13.3l-13.3,13.3l-254.8,254.8c-3.6,3.6-3.6,3.6-4.2,6.1l-41.3,112.2
			c-1.2,3.6,2.4,7.3,6.1,6.1l112.2-41.3c2.4-1.2,3.6,0,6.7-3.6l0.6,0.6l214.8-214.8c7.3-7.3,7.3-19.4,0-26.7s-19.4-7.3-26.7,0
			l-13.3,13.3l-10.3,10.3L-256.1,385l-30.9,4.2l4.2-30.9l186.8-186.8l10.3-10.3l53.4-53.4l40,40c7.3,7.3,19.4,7.3,26.7,0l13.3-13.3
			c22.4-22.4,22.4-58.2,0-80.7C26,32-10.4,32-32.2,53.8z M21.2,107.8L-5.5,81.1c7.3-7.3,19.4-7.3,26.7,0
			C28.4,88.4,28.4,99.9,21.2,107.8z"/>
	</g>
	<g display="none">
		<path display="inline" d="M-148.7,497.9c-135.9,0-246.3-110.4-246.3-246.3S-284.6,5.3-148.7,5.3S97.6,115.7,97.6,251.6
			S-12.8,497.9-148.7,497.9z M-148.7,42.9c-115.3,0-208.7,93.4-208.7,208.7s93.4,208.7,208.7,208.7S60,366.8,60,251.6
			S-33.4,42.9-148.7,42.9z M-40.7,359.5c7.3-7.3,7.3-19.4-0.6-26.7l-89.2-89.2V137.5c0-10.3-7.9-18.8-18.2-18.8s-18.2,8.5-18.2,18.8
			v114c0,4.9,1.8,9.7,5.5,13.3l94.6,94.6c3.6,3.6,8.5,5.5,13.3,5.5S-44.4,363.2-40.7,359.5z"/>
	</g>
	<g display="none">
		<path display="inline" d="M60,457.8h-417.4c-10.3,0-21.8-6.1-21.8-17V137.5c0-10.3,11.5-19.4,21.8-19.4h75.8
			c10.3,0,17.6,9.1,17.6,19.4V365c0,10.3-7.9,18.8-18.2,18.8s-18.2-8.5-18.2-18.8V154.5h-36.4v266.9H39.4V154.5h-93.4
			c-10.3,0-21.8-6.1-21.8-17V81.7h-72.8v55.8c0,10.3-8.5,17-18.8,17h-37.6c-10.3,0-18.8-7.9-18.8-18.2s8.5-18.2,18.8-18.2h20V62.3
			c0-10.3,6.7-17,17.6-17h114c10.3,0,20.6,6.1,20.6,17v55.8h93.4c10.3,0,15.8,9.1,15.8,19.4v303.3C75.8,451.8,70.3,457.8,60,457.8z
			 M-281.6,81.7c0-10.3-8.5-18.2-18.8-18.2H-338c-10.3,0-18.8,7.9-18.8,18.2s8.5,18.2,18.8,18.2h37.6C-290,99.9-281.6,92-281.6,81.7
			z M78.8,81.7c0-10.3-8.5-18.2-18.8-18.2H22.4c-10.3,0-18.8,7.9-18.8,18.2s8.5,18.2,18.8,18.2H60C70.3,99.9,78.8,92,78.8,81.7z
			 M3,289.2c0-62.5-51-114-114-114s-114,51-114,114s51.6,114,114,114S3,352.3,3,289.2z M-34.6,289.2c0,41.9-34,75.8-75.8,75.8
			s-75.8-34-75.8-75.8s34-75.8,75.8-75.8S-34.6,247.9-34.6,289.2z"/>
	</g>
	<g display="none">
		<path display="inline" d="M40.6,63.5H3v36.4h36.4v36.4h-376.1V99.9h36.4V63.5H-338c-20.6,0-41.3,15.8-41.3,36.4v340.9
			c0,20.6,20,41.3,41.3,41.3H41.2c20.6,0,35.2-20,35.2-41.3V99.9C75.8,79.3,61.8,63.5,40.6,63.5z M39.4,439.6h-376.1V178.8H39.4
			V439.6z M-245.8,118.1h-36.4V2.8h36.4v60.7h78.9V2.8h36.4v60.7h78.9V2.8h36.4v115.3h-36.4V99.9h-78.9v18.2h-36.4V99.9h-78.9V118.1
			z M-227.6,288h-72.8v-72.8h72.8V288z M-112.3,288h-72.8v-72.8h72.8V288z M3,288h-78.9v-72.8H3V288z M-227.6,403.2h-72.8v-72.8
			h72.8V403.2z M-112.3,403.2h-72.8v-72.8h72.8V403.2z M3,403.2h-78.9v-72.8H3V403.2z"/>
	</g>
	<g display="none">
		<path display="inline" d="M82.4,153.3c21.8-18.2,34-44.9,34-72.2c0-52.2-42.5-94.6-94.6-94.6c-27.9,0-54,12.7-72.2,34
			c-6.7,7.9-5.5,20,2.4,26.7s20,5.5,26.7-2.4c10.9-13.3,26.7-20.6,43.7-20.6c31.5,0,57,25.5,57,57c0,16.4-7.3,32.2-20.6,43.7
			c-7.9,6.7-9.1,18.8-2.4,26.7c3.6,4.2,9.1,6.7,14.6,6.7C74.5,157.5,78.8,156.3,82.4,153.3z M-355.6,150.3c6.7-7.9,6.1-20-1.8-26.7
			c-12.7-10.9-20-26.1-20-42.5c0-31.5,25.5-57,57-57c16.4,0,32.2,7.3,43.7,20.6c6.7,7.9,18.8,9.1,26.7,2.4
			c7.9-6.7,9.1-18.8,2.4-26.7c-18.2-21.8-44.9-34-72.2-34c-52.2,0-94.6,42.5-94.6,94.6c0,27.3,12.1,53.4,32.8,71
			c3.6,3,7.9,4.9,12.1,4.9C-364.7,156.9-359.2,154.5-355.6,150.3z M40.6,251.6c0-104.3-84.9-189.3-189.3-189.3S-338,147.2-338,251.6
			s84.9,189.3,189.3,189.3S40.6,355.9,40.6,251.6z M3,251.6C3,335.3-65,403.2-148.7,403.2s-151.7-67.9-151.7-151.7
			s67.9-151.7,151.7-151.7S3,167.8,3,251.6z M-130.5,251.6v-75.8c0-10.3-7.9-18.8-18.2-18.8s-18.2,8.5-18.2,18.8v57.6h-19.4
			c-10.3,0-18.8,7.9-18.8,18.2s8.5,18.2,18.8,18.2h37.6C-138.4,269.8-130.5,261.9-130.5,251.6z M-322.2,508.8l37.6-57
			c6.1-8.5,3.6-20.6-5.5-26.1c-8.5-6.1-20.6-3.6-26.1,5.5l-37.6,57c-6.1,8.5-3.6,20.6,5.5,26.1c3,2.4,6.7,3,10.3,3
			C-331.9,517.3-326.4,514.2-322.2,508.8z M51.5,513.6c8.5-6.1,10.9-17.6,5.5-26.1l-37.6-57c-6.1-8.5-17.6-10.9-26.1-5.5
			c-8.5,6.1-10.9,17.6-5.5,26.1l37.6,57c3.6,5.5,9.7,8.5,15.8,8.5C44.2,517.3,48.5,516.1,51.5,513.6z"/>
	</g>
	<g display="none">
		<path display="inline" d="M40.6,460.2H-338c-20.6,0-37.6-17-37.6-37.6V156.9c0-20.6,17-37.6,37.6-37.6h57
			c10.3,0,18.8-8.5,18.8-18.8c0-31.5,25.5-57,57-57h114c31.5,0,57,25.5,57,57c0,10.3,8.5,18.8,18.8,18.8h57
			c20.6,0,37.6,17,37.6,37.6v265.7C78.8,443.3,61.8,460.2,40.6,460.2z M-338,156.9v265.7H41.2V156.9h-57c-31.5,0-57-25.5-57-57
			c0-10.3-8.5-18.8-18.8-18.8h-114c-10.3,0-18.8,8.5-18.8,18.8c0,31.5-25.5,57-57,57L-338,156.9z M-106.2,375.9
			c9.7-3.6,14.6-15.2,10.3-24.9c-4.2-9.7-15.2-14.6-24.9-10.3c-9.1,3.6-18.8,5.5-27.9,5.5c-41.9,0-75.8-34-75.8-75.8
			s34-75.8,75.8-75.8s75.8,34,75.8,75.8c0,9.7-1.8,18.8-5.5,27.9c-3.6,9.7,0.6,20.6,10.3,24.9c9.7,3.6,20.6-0.6,24.9-10.3
			c5.5-14,8.5-27.9,8.5-42.5c0-62.5-51-114-114-114s-114,51-114,114s51.6,114,114,114C-134.1,384.4-120.2,381.4-106.2,375.9z"/>
	</g>
	<g display="none">
		<path display="inline" d="M-21.3,43.5l-12.1,12.1c-71-41.9-160.2-41.9-231.1,0l-11.5-12.1c-10.9-10.9-29.1-10.9-40,0l-40,40
			c-10.9,10.9-10.9,29.1,0,40l11.5,11.5c-41.9,71-41.9,160.2,0,231.1l-12.1,12.7c-10.9,10.9-10.9,29.1,0,40l40,40
			c10.9,10.9,29.1,10.9,40,0l11.5-11.5c71,41.9,160.2,41.9,231.1,0l11.5,11.5c10.9,10.9,29.1,10.9,40,0l40-40
			c10.9-10.9,10.9-29.1,0-40l-10.3-12.1c41.9-71,41.9-160.2,0-231.1l11.5-11.5c10.9-10.9,10.9-29.1,0-40l-40-40
			C7.8,32.6-10.4,32.6-21.3,43.5z M-70.4,93.2l-29.7,29.1c-2.4,2.4-6.1,3-9.7,2.4c-25.5-7.9-52.8-7.9-78.3,0c-3.6,1.2-7.3,0-9.7-2.4
			l-29.7-29.7c-4.9-4.9-3-12.7,3-15.2c47.9-20.6,102.5-20.6,150.4,0C-67.4,80.5-65.6,88.4-70.4,93.2z M-82,318.3
			c-36.4,37-97.1,37-133.5,0s-37-97.1,0-133.5s97.1-37,134.1,0S-45,281.9-82,318.3z M-296.1,77.5l67.9,67.9
			c-4.9,3.6-9.7,7.9-14.6,12.1s-8.5,9.1-12.1,14.6l-67.9-67.9L-296.1,77.5z M-307,173.3l29.7,29.7c2.4,2.4,3,6.1,2.4,9.7
			c-7.9,25.5-7.9,52.8,0,78.3c1.2,3.6,0,7.3-2.4,9.7l-29.7,29.7c-4.9,4.9-12.7,3-15.2-3c-20.6-47.9-20.6-102.5,0-150.4
			C-319.8,170.3-311.9,168.5-307,173.3z M-322.8,399l67.9-67.9c3.6,4.9,7.9,9.7,12.1,14.6c4.9,4.9,9.1,8.5,14.6,12.1l-67.9,67.9
			L-322.8,399z M-227,409.9l29.7-29.7c2.4-2.4,6.1-3,9.7-2.4c25.5,7.9,52.8,7.9,78.3,0c3.6-1.2,7.3,0,9.7,2.4l29.7,29.7
			c4.9,4.9,3,12.7-3,15.2c-47.9,20.6-102.5,20.6-150.4,0C-230,422.6-231.8,414.7-227,409.9z M-1.3,425.7l-67.9-67.9
			c4.9-3.6,9.7-7.9,14.6-12.1c4.9-4.9,8.5-9.1,12.1-14.6L25.4,399L-1.3,425.7z M9.6,329.8l-29.1-29.7c-2.4-2.4-3-6.1-2.4-9.7
			c7.9-25.5,7.9-52.8,0-78.3c-1.2-3.6,0-7.3,2.4-9.7l29.7-29.7c4.9-4.9,12.7-3,15.2,3c20.6,47.9,20.6,102.5,0,150.4
			C22.4,332.9,14.5,334.7,9.6,329.8z M25.4,104.1l-67.9,67.9c-3.6-4.9-7.9-9.7-12.1-14.6c-4.9-4.9-9.1-8.5-14.6-12.1l67.9-67.9
			L25.4,104.1z"/>
	</g>
	<g display="none">
		<path display="inline" d="M-91.7,269.8c0,10.3-8.5,18.2-18.8,18.2h-38.2c-10.3,0-18.2-6.7-18.2-17.6v-75.8
			c0-10.3,7.9-18.8,18.2-18.8s18.2,8.5,18.2,18.8v57h19.4C-100.2,251.6-91.7,259.4-91.7,269.8z M-72.9,440.8
			c-10.3,0-21.2,8.5-21.2,18.8v37.6c0,10.3,10.9,18.8,21.2,18.8c10.3,0,21.2-8.5,21.2-18.8v-37.6C-51.6,449.3-62.6,440.8-72.9,440.8
			z M31.5,213.9c-2.4,0-4.9,0.6-7.3,1.8c-3,1.2-4.9,0-5.5-3c-10.3-42.5-40-78.9-70.4-101.9V5.3c0-10.9-11.5-20-23.1-18.8
			c-9.7,0.6-19.4,9.7-19.4,19.4v72.2c0,6.1-4.9,10.9-10.9,9.1c-14.6-3.6-28.5-6.1-44.3-6.1s-29.1,1.8-43.7,6.1
			c-6.1,1.8-10.9-3-10.9-9.1V5.3c0-10.9-11.5-20-23.1-18.8c-9.1,0.6-18.8,9.7-18.8,19.4v103.7c-42.5,30.9-75.8,83.1-75.8,142
			s33.4,111,75.8,142v104.9c0,10.9,11.5,20,23.1,18.8c9.7-1.2,19.4-9.7,19.4-19.4v-72.8c0-6.1,4.9-10.9,10.9-9.1
			c18.8,5.5,38.8,7.3,60.1,5.5C-58.9,414.7,1.1,360.8,17.5,291c0.6-3,3.6-4.2,6.7-3c1.8,1.2,4.9,1.2,7.3,1.8c10.9,0.6,20-9.1,20-20
			v-36.4C51.5,223,42.4,213.3,31.5,213.9z M-148.7,384.4c-73.4,0-132.9-59.5-132.9-132.9s59.5-132.9,132.9-132.9
			s132.9,59.5,132.9,132.9S-75.3,384.4-148.7,384.4z"/>
	</g>
	<g display="none">
		<g display="inline">
			<path d="M69.1,118.7H-44.4c-5.5,0-9.7-4.2-9.7-9.7V80.5c0-21.2-17-37.6-37.6-37.6h-114c-21.2,0-37.6,17-37.6,37.6V109
				c0,5.5-4.2,9.7-9.7,9.7h-28.5h-37.6h-47.3c-15.8,0-28.5,12.7-28.5,28.5v284.5c0,15.8,12.7,28.5,28.5,28.5H69.7
				c15.8,0,28.5-12.7,28.5-28.5V147.2C97.6,131.4,84.9,118.7,69.1,118.7z M-200.9,81.1h104.3c2.4,0,4.9,1.8,4.9,4.9v33.4h-114V85.9
				C-205.7,82.9-203.3,81.1-200.9,81.1z M-15.2,154.5v101.9c-42.5,21.2-87.4,32.8-133.5,32.8s-91-11.5-133.5-32.8V154.5H-15.2z
				 M-355,421.4V154.5h36.4v266.9H-355z M-282.2,298.9c42.5,18.8,87.4,28.5,133.5,28.5s91-9.7,133.5-28.5v122.5h-266.9V298.9z
				 M57.6,421.4H21.2V154.5h36.4V421.4z"/>
			<rect x="-166.9" y="197" width="36.4" height="54.6"/>
		</g>
	</g>
	<g display="none">
		<g display="inline">
			<path d="M-25.5,232.8h-189.3c-5.5,0-9.7-4.2-9.7-9.7v-83.1c0-40.6,31.5-75.8,72.2-77.7c43.7-2.4,79.5,32.8,79.5,75.8v37
				c0,9.7,7.3,18.8,17,19.4c11.5,1.2,20.6-7.9,20.6-18.8v-35.2c0-63.7-52.2-117.7-115.9-116.5c-61.3,1.2-111.6,51.6-111.6,113.4V223
				c0,5.5-4.2,9.7-9.7,9.7l0,0c-15.8,0-28.5,12.7-28.5,28.5V470c0,15.8,12.7,28.5,28.5,28.5h246.3c15.8,0,28.5-12.7,28.5-28.5V261.3
				C3,245.5-9.8,232.8-25.5,232.8z M-39.5,460.2h-218.4c-2.4,0-4.9-1.8-4.9-4.9V275.2c0-2.4,1.8-4.9,4.9-4.9h218.4
				c2.4,0,4.9,1.8,4.9,4.9v180.2C-34.6,457.8-37.1,460.2-39.5,460.2z"/>
			<path d="M-148.7,327.4L-148.7,327.4c-10.3,0-18.8,8.5-18.8,18.8v57h37.6v-57C-129.9,335.9-138.4,327.4-148.7,327.4z"/>
		</g>
	</g>
	<g display="none">
		<path display="inline" d="M-91.7,269.8c0,10.3-8.5,18.2-18.8,18.2h-38.2c-10.3,0-18.2-6.7-18.2-17.6v-57
			c0-10.3,7.9-18.8,18.2-18.8s18.2,8.5,18.2,18.8v38.2h19.4C-100.2,251.6-91.7,259.4-91.7,269.8z M39.4,175.7v57
			c0,10.3-6.7,18.8-17.6,18.8H3v94.6c0,29.1-16.4,54.6-40.6,67.3l-0.6,4.2C-47.4,436-51,456.6-51,477.2v21.2c0,5.5-3.6,10.3-7.3,14
			c-3,2.4-29.1,23.7-89.2,23.7c-58.8,0-86.8-21.2-89.2-23.7c-4.2-3.6-7.9-9.1-7.9-14.6v-21.2c0-20.6-3.6-41.3-12.7-59.5l-1.2-4.2
			c-24.3-12.7-40-38.2-40-67.3V156.9c0-29.1,16.4-54.6,40.6-67.3l0.6-4.2c9.1-18.2,12.7-38.8,12.7-59.5V5.3c0-4.9,3-9.7,6.7-13.3
			c4.2-4.2,27.9-24.3,89.8-24.3s86.8,20.6,90.4,24.3c2.4,3.6,6.1,7.9,6.1,13.3v21.2c0,20.6,3.6,41.3,12.7,59.5l1.2,3
			C-12.8,101.1,3,130.2,3,154.5h18.8C32.7,154.5,39.4,165.4,39.4,175.7z M-203.3,25.9c0,14.6-3,29.1-6.7,43.1
			c-1.8,6.1,1.8,12.1,7.9,12.1h106.8c6.1,0,9.7-6.1,7.9-12.1c-3.6-14-6.7-28.5-6.7-43.1V15c-6.1-4.2-23.7-10.3-54.6-10.3
			s-48.5,6.1-54.6,10.3L-203.3,25.9z M-94.1,477.2c0-14.6,3-29.1,6.7-43.1c1.8-6.1-1.8-12.1-7.9-12.1h-106.8
			c-6.1,0-9.7,6.1-7.9,12.1c3.6,14,6.7,28.5,6.7,43.1v10.3c6.1,4.2,24.9,10.9,54.6,10.9s48.5-6.1,54.6-10.3V477.2z M-33.4,155.7
			c0-21.2-17-37.6-37.6-37.6h-155.3c-21.2,0-37.6,17-37.6,37.6v191.1c0,21.2,17,37.6,37.6,37.6h154.7c21.2,0,37.6-17,37.6-37.6
			V155.7H-33.4z"/>
	</g>
	<g display="none">
		<g display="inline">
			<rect x="-51.6" y="269.8" width="36.4" height="36.4"/>
			<path d="M55.1,194.5h-14v-66.1c0-15.8-12.7-28.5-28.5-28.5h-331.2c-9.7,0-18.8-7.3-19.4-17c-1.2-11.5,7.9-20.6,18.8-20.6H2.4
				c9.7,0,18.8-7.3,19.4-17C23,33.8,13.9,24.7,3,24.7H-318c-29.7,0-55.2,21.8-58.2,51.6c-3,34,23.7,62.5,56.4,62.5H3V186
				c0,5.5-4.2,9.7-9.7,9.7h-44.9c-51.6,0-95.2,40-97.1,91c-1.8,54,41.3,98.3,94.6,98.3h47.3c5.5,0,9.7,4.2,9.7,9.7V442H-338V176.3
				c0-9.7-7.3-18.8-17-19.4c-11.5-1.2-20.6,7.9-20.6,18.8v274.8c0,15.8,12.7,28.5,28.5,28.5H13.3c15.8,0,28.5-12.7,28.5-28.5v-66.1
				h14c13.3,0,23.7-10.3,23.7-23.7V218.2C78.8,205.5,68.5,194.5,55.1,194.5z M36.3,346.2h-88.6c-29.7,0-55.2-21.8-58.2-51.6
				c-3-34,23.7-62.5,56.4-62.5h89.8c2.4,0,4.9,1.8,4.9,4.9v104.3C40.6,344.4,38.8,346.2,36.3,346.2z"/>
		</g>
	</g>
	<g display="none">
		<path display="inline" d="M-319.2,348.6c0-10.3,8.5-18.2,18.8-18.2h75.8c10.3,0,18.8,7.9,18.8,18.2c0,10.3-8.5,18.2-18.8,18.2
			h-75.8C-310.7,366.8-319.2,358.9-319.2,348.6z M-148.7,366.8h37.6c10.3,0,18.8-7.9,18.8-18.2c0-10.3-8.5-18.2-18.8-18.2h-37.6
			c-10.3,0-18.8,7.9-18.8,18.2C-167.5,358.9-159,366.8-148.7,366.8z M-15.8,366.8H3c10.3,0,18.8-7.9,18.8-18.2
			c0-10.3-8.5-18.2-18.8-18.2h-18.8c-10.3,0-18.8,7.9-18.8,18.2C-34.6,358.9-26.8,366.8-15.8,366.8z M100,118.7v14v4.9v18.8v14
			v260.9c0,15.8-15.2,26.1-30.9,26.1h-435.6c-15.8,0.6-30.9-9.7-30.9-25.5V170.9v-14v-18.8v-9.7v-9.7c0-30.9,27.9-55.2,59.5-55.2
			H41.2C72.1,63.5,100,87.8,100,118.7z M57.6,233.4H-355v188.1H57.6V233.4z M57.6,133.3v-14c0-10.3-6.1-18.8-17-18.8H-338
			c-10.9-0.6-17,7.9-17,18.2v9.7v9.7v16.4H57.6v-17V133.3z"/>
	</g>
</g>
</svg>
