<?xml version="1.0" encoding="utf-8"?>
<!-- Generator: Adobe Illustrator 16.0.0, SVG Export Plug-In . SVG Version: 6.00 Build 0)  -->
<!DOCTYPE svg PUBLIC "-//W3C//DTD SVG 1.1//EN" "http://www.w3.org/Graphics/SVG/1.1/DTD/svg11.dtd">
<svg version="1.1" id="Layer_1" xmlns="http://www.w3.org/2000/svg" xmlns:xlink="http://www.w3.org/1999/xlink" x="0px" y="0px"
	 width="500px" height="500px" viewBox="0 0 500 500" enable-background="new 0 0 500 500" xml:space="preserve">
<g>
	<defs>
		<rect id="SVGID_1_" x="0.333" y="27.206" width="499.667" height="445.292"/>
	</defs>
	<clipPath id="SVGID_2_">
		<use xlink:href="#SVGID_1_"  overflow="visible"/>
	</clipPath>
	<path d="M500,418.186L500,418.186c0,29.998-24.313,54.312-54.312,54.312H54.645
		c-30.004,0-54.312-24.313-54.312-54.312V103.178c0-23.995,19.455-43.449,43.45-43.449h219.103l87.97-31.872
		c5.58-2.031,11.743,0.849,13.779,6.397l9.26,25.475h39.206c23.996,0,43.45,19.454,43.45,43.449v21.725
		c23.995,0,43.449,19.455,43.449,43.45V418.186z M43.783,81.454L43.783,81.454c-11.993,0-21.725,9.733-21.725,21.725
		c0,11.993,9.732,21.725,21.725,21.725h37.419h2.052c0.143-0.053,0.229-0.175,0.372-0.228l119.29-43.222H43.783z M359.639,83.421
		l-11.541-31.765h-0.011l-22.276,8.073h0.032l-59.892,21.724h-0.105L145.93,124.903h228.782L359.639,83.421z M434.827,103.178
		c0-11.992-9.738-21.725-21.727-21.725h-31.312l15.795,43.449h37.244V103.178z M456.551,146.628H43.783
		c-7.95,0-15.318-2.292-21.725-6.031v277.588c0,18.001,14.601,32.588,32.586,32.588h391.043c18.001,0,32.588-14.587,32.588-32.588
		v-76.036h-43.449c-23.996,0-43.45-19.455-43.45-43.449c0-23.995,19.454-43.449,43.45-43.449h43.449v-86.898
		C478.276,156.36,468.537,146.628,456.551,146.628 M478.276,320.425v-43.449h-43.449c-11.988,0-21.727,9.737-21.727,21.725
		s9.738,21.725,21.727,21.725H478.276z M434.827,287.838h21.724v21.724h-21.724V287.838z"/>
</g>
</svg>
